EESchema Schematic File Version 4
EELAYER 30 0
EELAYER END
$Descr A4 11693 8268
encoding utf-8
Sheet 1 2
Title "Frog Shutters"
Date "2021-02-06"
Rev "2.0"
Comp "gratefulfrog.org"
Comment1 "Version with 2 PCBs"
Comment2 ""
Comment3 ""
Comment4 ""
$EndDescr
$EndSCHEMATC
