(export (version D)
  (design
    (source "/home/bob/Documents/Maison de Roqueseriere/Volets et Vent/ShutterProtectionProject/Design/Version 02 two pcb front panel and backplate/FrogShutters/FrogShutters.sch")
    (date "Tue 02 Mar 2021 08:01:22 PM CET")
    (tool "Eeschema 5.1.9-73d0e3b20d~88~ubuntu18.04.1")
    (sheet (number 1) (name /) (tstamps /)
      (title_block
        (title "Frog Shutters")
        (company gratefulfrog.org)
        (rev 2.2.1)
        (date 2021-03-02)
        (source FrogShutters.sch)
        (comment (number 1) (value "Version with 2 PCBs"))
        (comment (number 2) (value "update SPDT"))
        (comment (number 3) (value "update for LCD connector"))
        (comment (number 4) (value "Update Keyed Rotary Encoders"))))
    (sheet (number 2) (name "/Front Panel/") (tstamps /60338964/)
      (title_block
        (title "Frog Shutters")
        (company gratefulfrog.org)
        (rev 2.0)
        (date 2021-02-06)
        (source fileFrontPanel.sch)
        (comment (number 1) (value "Version with 2 PCBs"))
        (comment (number 2) (value ""))
        (comment (number 3) (value ""))
        (comment (number 4) (value "")))))
  (components
    (comp (ref BZ1)
      (value "Piezo Buzzer")
      (footprint misc:Piezo_AT3040)
      (datasheet ~)
      (libsource (lib Device) (part Buzzer) (description "Buzzer, polarized"))
      (sheetpath (names /) (tstamps /))
      (tstamp 5FD514A1))
    (comp (ref R6)
      (value 1K)
      (footprint misc:R_Axial_DIN0204_L3.6mm_D1.6mm_P7.62mm_Horizontal_BIG_PADS)
      (datasheet ~)
      (libsource (lib Device) (part R) (description Resistor))
      (sheetpath (names /) (tstamps /))
      (tstamp 5FD58B4F))
    (comp (ref U3)
      (value "Relay OPEN")
      (footprint misc:DIP6_big_pads)
      (fields
        (field (name MANUFACTURER) Vishay))
      (libsource (lib LH1540AT) (part LH1540AT) (description ""))
      (sheetpath (names /) (tstamps /))
      (tstamp 5FD5B549))
    (comp (ref U4)
      (value "Relay CLOSE")
      (footprint misc:DIP6_big_pads)
      (fields
        (field (name MANUFACTURER) Vishay))
      (libsource (lib LH1540AT) (part LH1540AT) (description ""))
      (sheetpath (names /) (tstamps /))
      (tstamp 5FD5D247))
    (comp (ref U2)
      (value EEPROM)
      (footprint misc:DIP-8_W7.62mm_big_pads)
      (datasheet http://ww1.microchip.com/downloads/en/DeviceDoc/21754M.pdf)
      (libsource (lib Memory_EEPROM) (part 24LC512) (description "I2C Serial EEPROM, 512Kb, DIP-8/SOIC-8/TSSOP-8/DFN-8"))
      (sheetpath (names /) (tstamps /))
      (tstamp 5FD53116))
    (comp (ref C4)
      (value "100 nF")
      (footprint misc:C_Disc_D4.7mm_W2.5mm_P5.00mm_big_pads)
      (datasheet ~)
      (libsource (lib Device) (part C) (description "Unpolarized capacitor"))
      (sheetpath (names /) (tstamps /))
      (tstamp 5FE718BD))
    (comp (ref J5)
      (value Yokis)
      (footprint misc:2EDG_1x03_P5.00mm_Horizontal_pads_ok)
      (datasheet ~)
      (libsource (lib Connector) (part Screw_Terminal_01x03) (description "Generic screw terminal, single row, 01x03, script generated (kicad-library-utils/schlib/autogen/connector/)"))
      (sheetpath (names /) (tstamps /))
      (tstamp 5FD865D7))
    (comp (ref J3)
      (value "Wind Sensor")
      (footprint misc:2EDG_1x02_P5.00mm_Horizontal_pads_ok)
      (datasheet ~)
      (libsource (lib Connector) (part Screw_Terminal_01x02) (description "Generic screw terminal, single row, 01x02, script generated (kicad-library-utils/schlib/autogen/connector/)"))
      (sheetpath (names /) (tstamps /))
      (tstamp 5FDA115B))
    (comp (ref R5)
      (value 390R)
      (footprint misc:R_Axial_DIN0204_L3.6mm_D1.6mm_P7.62mm_Horizontal_BIG_PADS)
      (datasheet ~)
      (libsource (lib Device) (part R) (description Resistor))
      (sheetpath (names /) (tstamps /))
      (tstamp 5FD7C8C4))
    (comp (ref R7)
      (value 1K)
      (footprint misc:R_Axial_DIN0204_L3.6mm_D1.6mm_P7.62mm_Horizontal_BIG_PADS)
      (datasheet ~)
      (libsource (lib Device) (part R) (description Resistor))
      (sheetpath (names /) (tstamps /))
      (tstamp 5FEBAD96))
    (comp (ref R8)
      (value 1K)
      (footprint misc:R_Axial_DIN0204_L3.6mm_D1.6mm_P7.62mm_Horizontal_BIG_PADS)
      (datasheet ~)
      (libsource (lib Device) (part R) (description Resistor))
      (sheetpath (names /) (tstamps /))
      (tstamp 5FEE6974))
    (comp (ref SW3)
      (value Rotary_Switch_Right)
      (footprint misc:Keyed_Rotary_Encoder)
      (datasheet ~)
      (libsource (lib Switch) (part SW_Coded) (description "Rotary switch, 4-bit encoding"))
      (sheetpath (names /) (tstamps /))
      (tstamp 5FF38059))
    (comp (ref H8)
      (value MountingHole)
      (footprint misc:MountingHole_3.2mm_M3_nut_courtyard)
      (datasheet ~)
      (libsource (lib Mechanical) (part MountingHole) (description "Mounting Hole without connection"))
      (sheetpath (names /) (tstamps /))
      (tstamp 5FD6FD1E))
    (comp (ref H7)
      (value MountingHole)
      (footprint misc:MountingHole_3.2mm_M3_nut_courtyard)
      (datasheet ~)
      (libsource (lib Mechanical) (part MountingHole) (description "Mounting Hole without connection"))
      (sheetpath (names /) (tstamps /))
      (tstamp 5FD72FB4))
    (comp (ref H9)
      (value MountingHole)
      (footprint misc:MountingHole_3.2mm_M3_nut_courtyard)
      (datasheet ~)
      (libsource (lib Mechanical) (part MountingHole) (description "Mounting Hole without connection"))
      (sheetpath (names /) (tstamps /))
      (tstamp 5FD73839))
    (comp (ref H10)
      (value MountingHole)
      (footprint misc:MountingHole_3.2mm_M3_nut_courtyard)
      (datasheet ~)
      (libsource (lib Mechanical) (part MountingHole) (description "Mounting Hole without connection"))
      (sheetpath (names /) (tstamps /))
      (tstamp 5FD7A8CB))
    (comp (ref J4)
      (value LCD)
      (footprint misc:LCD_with_I2C_Backpack)
      (datasheet ~)
      (libsource (lib Connector) (part Conn_01x04_Male) (description "Generic connector, single row, 01x04, script generated (kicad-library-utils/schlib/autogen/connector/)"))
      (sheetpath (names /) (tstamps /))
      (tstamp 5FDBC981))
    (comp (ref R4)
      (value 390R)
      (footprint misc:R_Axial_DIN0204_L3.6mm_D1.6mm_P7.62mm_Horizontal_BIG_PADS)
      (datasheet ~)
      (libsource (lib Device) (part R) (description Resistor))
      (sheetpath (names /) (tstamps /))
      (tstamp 5FF7747A))
    (comp (ref J6)
      (value Buzzer)
      (footprint TerminalBlock_TE-Connectivity:TerminalBlock_TE_282834-2_1x02_P2.54mm_Horizontal)
      (datasheet ~)
      (libsource (lib Connector) (part Screw_Terminal_01x02) (description "Generic screw terminal, single row, 01x02, script generated (kicad-library-utils/schlib/autogen/connector/)"))
      (sheetpath (names /) (tstamps /))
      (tstamp 5FF85EA4))
    (comp (ref C3)
      (value 10µF)
      (footprint misc:CP_Radial_D5.0mm_P2.50mm_big_pads)
      (datasheet ~)
      (libsource (lib Device) (part C) (description "Unpolarized capacitor"))
      (sheetpath (names /) (tstamps /))
      (tstamp 5FDAABFD))
    (comp (ref R3)
      (value 4K7)
      (footprint misc:R_Axial_DIN0204_L3.6mm_D1.6mm_P7.62mm_Horizontal_BIG_PADS)
      (datasheet ~)
      (libsource (lib Device) (part R) (description Resistor))
      (sheetpath (names /) (tstamps /))
      (tstamp 601C9BEF))
    (comp (ref C2)
      (value 15nF)
      (footprint misc:C_Disc_D4.7mm_W2.5mm_P5.00mm_big_pads)
      (datasheet ~)
      (libsource (lib Device) (part C) (description "Unpolarized capacitor"))
      (sheetpath (names /) (tstamps /))
      (tstamp 601CA678))
    (comp (ref LD3)
      (value LED_BLUE_5MM)
      (footprint misc:LED_D5.0mm)
      (libsource (lib led) (part LED5MM) (description ""))
      (sheetpath (names /) (tstamps /))
      (tstamp 6020DCBB))
    (comp (ref LD2)
      (value LED_RED_5MM)
      (footprint misc:LED_D5.0mm)
      (libsource (lib led) (part LED5MM) (description ""))
      (sheetpath (names /) (tstamps /))
      (tstamp 6020E656))
    (comp (ref LD1)
      (value LED_GREEN_5MM)
      (footprint misc:LED_D5.0mm)
      (libsource (lib led) (part LED5MM) (description ""))
      (sheetpath (names /) (tstamps /))
      (tstamp 6020EE86))
    (comp (ref R1)
      (value 4K7)
      (footprint misc:R_Axial_DIN0204_L3.6mm_D1.6mm_P7.62mm_Horizontal_BIG_PADS)
      (datasheet ~)
      (libsource (lib Device) (part R) (description Resistor))
      (sheetpath (names /) (tstamps /))
      (tstamp 6024FF49))
    (comp (ref R2)
      (value 4K7)
      (footprint misc:R_Axial_DIN0204_L3.6mm_D1.6mm_P7.62mm_Horizontal_BIG_PADS)
      (datasheet ~)
      (libsource (lib Device) (part R) (description Resistor))
      (sheetpath (names /) (tstamps /))
      (tstamp 602510B1))
    (comp (ref H1)
      (value MountingHole)
      (footprint misc:MountingHole_3.2mm_M3_nut_courtyard)
      (datasheet ~)
      (libsource (lib Mechanical) (part MountingHole) (description "Mounting Hole without connection"))
      (sheetpath (names /) (tstamps /))
      (tstamp 6035E49A))
    (comp (ref H3)
      (value MountingHole)
      (footprint misc:MountingHole_3.2mm_M3_nut_courtyard)
      (datasheet ~)
      (libsource (lib Mechanical) (part MountingHole) (description "Mounting Hole without connection"))
      (sheetpath (names /) (tstamps /))
      (tstamp 6035FEB5))
    (comp (ref SW2)
      (value Rotary_Switch_Left)
      (footprint misc:Keyed_Rotary_Encoder)
      (datasheet ~)
      (libsource (lib Switch) (part SW_Coded) (description "Rotary switch, 4-bit encoding"))
      (sheetpath (names /) (tstamps /))
      (tstamp 5FF38569))
    (comp (ref C1)
      (value 100nF)
      (footprint misc:C_Disc_D4.7mm_W2.5mm_P5.00mm_big_pads)
      (datasheet ~)
      (libsource (lib Device) (part C) (description "Unpolarized capacitor"))
      (sheetpath (names /) (tstamps /))
      (tstamp 601CA821))
    (comp (ref J2)
      (value Conn_02x08_Odd_Even)
      (footprint misc:IDC-Header_2x08_P2.54mm_Vertical_big_pads)
      (datasheet ~)
      (libsource (lib Connector_Generic) (part Conn_02x08_Odd_Even) (description "Generic connector, double row, 02x08, odd/even pin numbering scheme (row 1 odd numbers, row 2 even numbers), script generated (kicad-library-utils/schlib/autogen/connector/)"))
      (sheetpath (names /) (tstamps /))
      (tstamp 6031A1DD))
    (comp (ref R9)
      (value 1K)
      (footprint misc:R_Axial_DIN0204_L3.6mm_D1.6mm_P7.62mm_Horizontal_BIG_PADS)
      (datasheet ~)
      (libsource (lib Device) (part R) (description Resistor))
      (sheetpath (names /) (tstamps /))
      (tstamp 5FEE5B2C))
    (comp (ref MD1)
      (value MKR_WIFI_1010)
      (footprint misc:Arduino-MKR_WIFI_1010-0-0-MFG_big_big_pads)
      (datasheet https://store.arduino.cc/mkr-wifi-1010)
      (fields
        (field (name "RAM size") 32KBytes)
        (field (name automotive) No)
        (field (name category) UNK)
        (field (name "core architecture") "ARM Cortex-M0+")
        (field (name "data bus width") 32bits)
        (field (name "device class L1") "Integrated Circuits (ICs)")
        (field (name "device class L2") "Embedded Processors and Controllers")
        (field (name "device class L3") Microcontrollers)
        (field (name "digikey description") "ARDUINO MKR WIFI 1010")
        (field (name "digikey part number") 1050-1162-ND)
        (field (name frequency) 48MHz)
        (field (name interface) I2C,SPI,UART,I2S)
        (field (name "lead free") Yes)
        (field (name "library id") 7eb282d1527b7afb)
        (field (name manufacturer) Arduino)
        (field (name "max supply voltage") 5V)
        (field (name "memory size") 256KBytes)
        (field (name "memory type") FLASH)
        (field (name "min supply voltage") 3.3V)
        (field (name "mouser part number") 782-ABX00023)
        (field (name "number of A/D converters") 1)
        (field (name "number of ADC channels") 7)
        (field (name "number of I/Os") 8)
        (field (name "number of I2C channels") 1)
        (field (name "number of PWM channels") 12)
        (field (name "number of SPI channels") 1)
        (field (name "number of UART channels") 1)
        (field (name package) EVALUATION_BOARD)
        (field (name rohs) Yes))
      (libsource (lib eec) (part MKR_WIFI_1010) (description "MKR WIFI 1010"))
      (sheetpath (names /) (tstamps /))
      (tstamp 5FD4FAFE))
    (comp (ref J1)
      (value Conn_02x08_Odd_Even)
      (footprint misc:IDC-Header_2x08_P2.54mm_Vertical_big_pads)
      (datasheet ~)
      (libsource (lib Connector_Generic) (part Conn_02x08_Odd_Even) (description "Generic connector, double row, 02x08, odd/even pin numbering scheme (row 1 odd numbers, row 2 even numbers), script generated (kicad-library-utils/schlib/autogen/connector/)"))
      (sheetpath (names /) (tstamps /))
      (tstamp 60242EF5))
    (comp (ref U1)
      (value "NAND Schmitt")
      (footprint misc:DIP-14_W7.62mm_big_pads)
      (datasheet https://assets.nexperia.com/documents/data-sheet/HEF4093B.pdf)
      (libsource (lib 4xxx) (part HEF4093B) (description "Quad 2-Input NAND Schmitt Trigger, SOIC-14"))
      (sheetpath (names /) (tstamps /))
      (tstamp 601E7477))
    (comp (ref SW1)
      (value SW_SPDT)
      (footprint misc:SPDT_Tayda_P4.7mm)
      (datasheet ~)
      (libsource (lib Switch_Bob) (part SW_SPDT) (description "Switch, single pole double throw"))
      (sheetpath (names /) (tstamps /))
      (tstamp 6024F6A8)))
  (libparts
    (libpart (lib 4xxx) (part HEF4093B)
      (description "Quad 2-Input NAND Schmitt Trigger, SOIC-14")
      (docs https://assets.nexperia.com/documents/data-sheet/HEF4093B.pdf)
      (footprints
        (fp SOIC*3.9x8.7mm*P1.27mm*))
      (fields
        (field (name Reference) U)
        (field (name Value) HEF4093B))
      (pins
        (pin (num 1) (name ~) (type input))
        (pin (num 2) (name ~) (type input))
        (pin (num 3) (name ~) (type output))
        (pin (num 4) (name ~) (type output))
        (pin (num 5) (name ~) (type input))
        (pin (num 6) (name ~) (type input))
        (pin (num 7) (name GND) (type power_in))
        (pin (num 8) (name ~) (type input))
        (pin (num 9) (name ~) (type input))
        (pin (num 10) (name ~) (type output))
        (pin (num 11) (name ~) (type output))
        (pin (num 12) (name ~) (type input))
        (pin (num 13) (name ~) (type input))
        (pin (num 14) (name VCC) (type power_in))))
    (libpart (lib Connector) (part Conn_01x04_Male)
      (description "Generic connector, single row, 01x04, script generated (kicad-library-utils/schlib/autogen/connector/)")
      (docs ~)
      (footprints
        (fp Connector*:*_1x??_*))
      (fields
        (field (name Reference) J)
        (field (name Value) Conn_01x04_Male))
      (pins
        (pin (num 1) (name Pin_1) (type passive))
        (pin (num 2) (name Pin_2) (type passive))
        (pin (num 3) (name Pin_3) (type passive))
        (pin (num 4) (name Pin_4) (type passive))))
    (libpart (lib Connector) (part Screw_Terminal_01x02)
      (description "Generic screw terminal, single row, 01x02, script generated (kicad-library-utils/schlib/autogen/connector/)")
      (docs ~)
      (footprints
        (fp TerminalBlock*:*))
      (fields
        (field (name Reference) J)
        (field (name Value) Screw_Terminal_01x02))
      (pins
        (pin (num 1) (name Pin_1) (type passive))
        (pin (num 2) (name Pin_2) (type passive))))
    (libpart (lib Connector) (part Screw_Terminal_01x03)
      (description "Generic screw terminal, single row, 01x03, script generated (kicad-library-utils/schlib/autogen/connector/)")
      (docs ~)
      (footprints
        (fp TerminalBlock*:*))
      (fields
        (field (name Reference) J)
        (field (name Value) Screw_Terminal_01x03))
      (pins
        (pin (num 1) (name Pin_1) (type passive))
        (pin (num 2) (name Pin_2) (type passive))
        (pin (num 3) (name Pin_3) (type passive))))
    (libpart (lib Connector_Generic) (part Conn_02x08_Odd_Even)
      (description "Generic connector, double row, 02x08, odd/even pin numbering scheme (row 1 odd numbers, row 2 even numbers), script generated (kicad-library-utils/schlib/autogen/connector/)")
      (docs ~)
      (footprints
        (fp Connector*:*_2x??_*))
      (fields
        (field (name Reference) J)
        (field (name Value) Conn_02x08_Odd_Even))
      (pins
        (pin (num 1) (name Pin_1) (type passive))
        (pin (num 2) (name Pin_2) (type passive))
        (pin (num 3) (name Pin_3) (type passive))
        (pin (num 4) (name Pin_4) (type passive))
        (pin (num 5) (name Pin_5) (type passive))
        (pin (num 6) (name Pin_6) (type passive))
        (pin (num 7) (name Pin_7) (type passive))
        (pin (num 8) (name Pin_8) (type passive))
        (pin (num 9) (name Pin_9) (type passive))
        (pin (num 10) (name Pin_10) (type passive))
        (pin (num 11) (name Pin_11) (type passive))
        (pin (num 12) (name Pin_12) (type passive))
        (pin (num 13) (name Pin_13) (type passive))
        (pin (num 14) (name Pin_14) (type passive))
        (pin (num 15) (name Pin_15) (type passive))
        (pin (num 16) (name Pin_16) (type passive))))
    (libpart (lib Device) (part Buzzer)
      (description "Buzzer, polarized")
      (docs ~)
      (footprints
        (fp *Buzzer*))
      (fields
        (field (name Reference) BZ)
        (field (name Value) Buzzer))
      (pins
        (pin (num 1) (name -) (type passive))
        (pin (num 2) (name +) (type passive))))
    (libpart (lib Device) (part C)
      (description "Unpolarized capacitor")
      (docs ~)
      (footprints
        (fp C_*))
      (fields
        (field (name Reference) C)
        (field (name Value) C))
      (pins
        (pin (num 1) (name ~) (type passive))
        (pin (num 2) (name ~) (type passive))))
    (libpart (lib Device) (part R)
      (description Resistor)
      (docs ~)
      (footprints
        (fp R_*))
      (fields
        (field (name Reference) R)
        (field (name Value) R))
      (pins
        (pin (num 1) (name ~) (type passive))
        (pin (num 2) (name ~) (type passive))))
    (libpart (lib LH1540AT) (part LH1540AT)
      (fields
        (field (name Reference) U)
        (field (name Value) LH1540AT)
        (field (name Footprint) DIP762W50P254L730H410Q6)
        (field (name MANUFACTURER) Vishay))
      (pins
        (pin (num 1) (name ~) (type passive))
        (pin (num 2) (name ~) (type passive))
        (pin (num 4) (name ~) (type passive))
        (pin (num 5) (name ~) (type passive))
        (pin (num 6) (name ~) (type passive))))
    (libpart (lib Mechanical) (part MountingHole)
      (description "Mounting Hole without connection")
      (docs ~)
      (footprints
        (fp MountingHole*))
      (fields
        (field (name Reference) H)
        (field (name Value) MountingHole)))
    (libpart (lib Memory_EEPROM) (part 24LC16)
      (aliases
        (alias 24LC02)
        (alias 24LC00)
        (alias 24LC04)
        (alias 24LC08)
        (alias 24LC01)
        (alias 24LC512)
        (alias 24LC64)
        (alias 24LC1025)
        (alias 24LC32)
        (alias 24LC256)
        (alias 24LC128)
        (alias CAT24C256)
        (alias CAT24C128))
      (description "I2C Serial EEPROM, 16Kb, DIP-8/SOIC-8/TSSOP-8/DFN-8")
      (docs http://ww1.microchip.com/downloads/en/DeviceDoc/21703d.pdf)
      (footprints
        (fp DIP*W7.62mm*)
        (fp SOIC*3.9x4.9mm*)
        (fp TSSOP*4.4x3mm*P0.65mm*)
        (fp DFN*3x2mm*P0.5mm*))
      (fields
        (field (name Reference) U)
        (field (name Value) 24LC16))
      (pins
        (pin (num 1) (name A0) (type input))
        (pin (num 2) (name A1) (type input))
        (pin (num 3) (name A2) (type input))
        (pin (num 4) (name GND) (type power_in))
        (pin (num 5) (name SDA) (type BiDi))
        (pin (num 6) (name SCL) (type input))
        (pin (num 7) (name WP) (type input))
        (pin (num 8) (name VCC) (type power_in))))
    (libpart (lib Switch) (part SW_Coded)
      (description "Rotary switch, 4-bit encoding")
      (docs ~)
      (fields
        (field (name Reference) SW)
        (field (name Value) SW_Coded))
      (pins
        (pin (num 1) (name CM) (type passive))
        (pin (num 2) (name D0) (type passive))
        (pin (num 3) (name D1) (type passive))
        (pin (num 4) (name D2) (type passive))
        (pin (num 5) (name D3) (type passive))))
    (libpart (lib Switch_Bob) (part SW_SPDT)
      (description "Switch, single pole double throw")
      (docs ~)
      (fields
        (field (name Reference) SW)
        (field (name Value) SW_SPDT))
      (pins
        (pin (num C) (name B) (type passive))
        (pin (num NC) (name A) (type passive))
        (pin (num NO) (name C) (type passive))))
    (libpart (lib eec) (part MKR_WIFI_1010)
      (description "MKR WIFI 1010")
      (docs https://store.arduino.cc/mkr-wifi-1010)
      (fields
        (field (name Reference) MD)
        (field (name Value) MKR_WIFI_1010)
        (field (name Footprint) Arduino-MKR_WIFI_1010-0-0-*)
        (field (name Datasheet) https://store.arduino.cc/mkr-wifi-1010)
        (field (name "RAM size") 32KBytes)
        (field (name automotive) No)
        (field (name category) UNK)
        (field (name "core architecture") "ARM Cortex-M0+")
        (field (name "data bus width") 32bits)
        (field (name "device class L1") "Integrated Circuits (ICs)")
        (field (name "device class L2") "Embedded Processors and Controllers")
        (field (name "device class L3") Microcontrollers)
        (field (name "digikey description") "ARDUINO MKR WIFI 1010")
        (field (name "digikey part number") 1050-1162-ND)
        (field (name frequency) 48MHz)
        (field (name interface) I2C,SPI,UART,I2S)
        (field (name "lead free") Yes)
        (field (name "library id") 7eb282d1527b7afb)
        (field (name manufacturer) Arduino)
        (field (name "max supply voltage") 5V)
        (field (name "memory size") 256KBytes)
        (field (name "memory type") FLASH)
        (field (name "min supply voltage") 3.3V)
        (field (name "mouser part number") 782-ABX00023)
        (field (name "number of A/D converters") 1)
        (field (name "number of ADC channels") 7)
        (field (name "number of I/Os") 8)
        (field (name "number of I2C channels") 1)
        (field (name "number of PWM channels") 12)
        (field (name "number of SPI channels") 1)
        (field (name "number of UART channels") 1)
        (field (name package) EVALUATION_BOARD)
        (field (name rohs) Yes))
      (pins
        (pin (num 1) (name AREF) (type input))
        (pin (num 2) (name A0/DAC0) (type BiDi))
        (pin (num 3) (name A1) (type BiDi))
        (pin (num 4) (name A2) (type BiDi))
        (pin (num 5) (name A3) (type BiDi))
        (pin (num 6) (name A4) (type BiDi))
        (pin (num 7) (name A5) (type BiDi))
        (pin (num 8) (name A6) (type BiDi))
        (pin (num 9) (name D0) (type BiDi))
        (pin (num 10) (name D1) (type BiDi))
        (pin (num 11) (name D2) (type BiDi))
        (pin (num 12) (name D3) (type BiDi))
        (pin (num 13) (name D4) (type BiDi))
        (pin (num 14) (name D5) (type BiDi))
        (pin (num 15) (name D6) (type BiDi))
        (pin (num 16) (name D7) (type BiDi))
        (pin (num 17) (name D8/MOSI) (type BiDi))
        (pin (num 18) (name D9/SCK) (type BiDi))
        (pin (num 19) (name D10/MISO) (type BiDi))
        (pin (num 20) (name D11/SDA) (type BiDi))
        (pin (num 21) (name D12/SCL) (type BiDi))
        (pin (num 22) (name D13/RX) (type BiDi))
        (pin (num 23) (name D14/TX) (type BiDi))
        (pin (num 24) (name ~RESET~) (type input))
        (pin (num 25) (name GND) (type power_in))
        (pin (num 26) (name +3V3) (type power_in))
        (pin (num 27) (name VIN) (type power_in))
        (pin (num 28) (name +5V) (type power_in))))
    (libpart (lib led) (part LED5MM)
      (fields
        (field (name Reference) LD)
        (field (name Value) LED5MM)
        (field (name Footprint) led-LED5MM))
      (pins
        (pin (num A) (name A) (type passive))
        (pin (num K) (name C) (type passive)))))
  (libraries
    (library (logical 4xxx)
      (uri /usr/share/kicad/library//4xxx.lib))
    (library (logical Connector)
      (uri /usr/share/kicad/library//Connector.lib))
    (library (logical Connector_Generic)
      (uri /usr/share/kicad/library//Connector_Generic.lib))
    (library (logical Device)
      (uri /usr/share/kicad/library//Device.lib))
    (library (logical LH1540AT)
      (uri /usr/share/kicad/library//LH1540AT.lib))
    (library (logical Mechanical)
      (uri /usr/share/kicad/library//Mechanical.lib))
    (library (logical Memory_EEPROM)
      (uri /usr/share/kicad/library//Memory_EEPROM.lib))
    (library (logical Switch)
      (uri /usr/share/kicad/library//Switch.lib))
    (library (logical Switch_Bob)
      (uri /home/bob/KicadL/Switch_Bob.lib))
    (library (logical eec)
      (uri /usr/share/kicad/library//eec.lib))
    (library (logical led)
      (uri /usr/share/kicad/library//led.lib)))
  (nets
    (net (code 1) (name /SigRight_no_pull)
      (node (ref J2) (pin 14))
      (node (ref MD1) (pin 13)))
    (net (code 2) (name /LED_CLOSE)
      (node (ref R8) (pin 2))
      (node (ref J2) (pin 13)))
    (net (code 3) (name /DirRight_no_pull)
      (node (ref J2) (pin 12))
      (node (ref MD1) (pin 10)))
    (net (code 4) (name /LED_OPEN)
      (node (ref J2) (pin 11))
      (node (ref R7) (pin 2)))
    (net (code 5) (name /KeyRight_no_pull)
      (node (ref MD1) (pin 9))
      (node (ref J2) (pin 10)))
    (net (code 6) (name /Pin_9_Reserve)
      (node (ref J2) (pin 1))
      (node (ref MD1) (pin 18)))
    (net (code 7) (name GND)
      (node (ref U4) (pin 2))
      (node (ref U2) (pin 2))
      (node (ref U2) (pin 3))
      (node (ref U3) (pin 2))
      (node (ref U2) (pin 1))
      (node (ref U2) (pin 4))
      (node (ref U2) (pin 7))
      (node (ref J3) (pin 1))
      (node (ref C4) (pin 1))
      (node (ref MD1) (pin 25))
      (node (ref J1) (pin 7))
      (node (ref U1) (pin 7))
      (node (ref SW1) (pin C))
      (node (ref C2) (pin 1))
      (node (ref SW3) (pin 1))
      (node (ref LD3) (pin K))
      (node (ref J6) (pin 2))
      (node (ref J4) (pin 1))
      (node (ref C3) (pin 2))
      (node (ref LD1) (pin K))
      (node (ref LD2) (pin K))
      (node (ref J2) (pin 7))
      (node (ref SW2) (pin 1))
      (node (ref C1) (pin 1)))
    (net (code 8) (name +3V3)
      (node (ref C1) (pin 2))
      (node (ref R3) (pin 2))
      (node (ref J2) (pin 8))
      (node (ref MD1) (pin 26))
      (node (ref U2) (pin 8))
      (node (ref C3) (pin 1))
      (node (ref C4) (pin 2))
      (node (ref R1) (pin 2))
      (node (ref SW3) (pin 5))
      (node (ref R2) (pin 2))
      (node (ref J4) (pin 2))
      (node (ref J1) (pin 8))
      (node (ref SW2) (pin 5))
      (node (ref U1) (pin 14)))
    (net (code 9) (name "Net-(MD1-Pad5)")
      (node (ref MD1) (pin 5))
      (node (ref R6) (pin 1)))
    (net (code 10) (name "Net-(MD1-Pad4)")
      (node (ref MD1) (pin 4))
      (node (ref R5) (pin 2)))
    (net (code 11) (name /WindSensor_no_pull)
      (node (ref R3) (pin 1))
      (node (ref MD1) (pin 3))
      (node (ref C2) (pin 2))
      (node (ref J3) (pin 2)))
    (net (code 12) (name "Net-(MD1-Pad2)")
      (node (ref MD1) (pin 2))
      (node (ref R4) (pin 2)))
    (net (code 13) (name "Net-(MD1-Pad28)")
      (node (ref MD1) (pin 28)))
    (net (code 14) (name "Net-(MD1-Pad27)")
      (node (ref MD1) (pin 27)))
    (net (code 15) (name "Net-(MD1-Pad12)")
      (node (ref R9) (pin 2))
      (node (ref MD1) (pin 12)))
    (net (code 16) (name /LED_PULSE)
      (node (ref J2) (pin 15))
      (node (ref R9) (pin 1)))
    (net (code 17) (name /Pin_A5_Reserve)
      (node (ref J2) (pin 9))
      (node (ref MD1) (pin 7)))
    (net (code 18) (name /SigLeft_no_pull)
      (node (ref MD1) (pin 15))
      (node (ref J2) (pin 6)))
    (net (code 19) (name /SCL)
      (node (ref MD1) (pin 21))
      (node (ref J2) (pin 5))
      (node (ref U2) (pin 6)))
    (net (code 20) (name /DirLeft_no_pull)
      (node (ref MD1) (pin 16))
      (node (ref J2) (pin 4)))
    (net (code 21) (name /SDA)
      (node (ref U2) (pin 5))
      (node (ref MD1) (pin 20))
      (node (ref J2) (pin 3)))
    (net (code 22) (name /KeyLeft_no_pull)
      (node (ref MD1) (pin 17))
      (node (ref J2) (pin 2)))
    (net (code 23) (name /NAND_Gate_no_pull)
      (node (ref MD1) (pin 14))
      (node (ref J2) (pin 16)))
    (net (code 24) (name "Net-(U1-Pad2)")
      (node (ref U1) (pin 2))
      (node (ref U1) (pin 4)))
    (net (code 25) (name "Net-(R2-Pad1)")
      (node (ref U1) (pin 6))
      (node (ref R2) (pin 1))
      (node (ref SW1) (pin NO)))
    (net (code 26) (name "Net-(R1-Pad1)")
      (node (ref SW1) (pin NC))
      (node (ref U1) (pin 1))
      (node (ref R1) (pin 1)))
    (net (code 27) (name "Net-(U1-Pad12)")
      (node (ref U1) (pin 12)))
    (net (code 28) (name "Net-(U1-Pad10)")
      (node (ref U1) (pin 10)))
    (net (code 29) (name "Net-(U1-Pad11)")
      (node (ref U1) (pin 11)))
    (net (code 30) (name "Net-(U1-Pad13)")
      (node (ref U1) (pin 13)))
    (net (code 31) (name "Net-(MD1-Pad6)")
      (node (ref MD1) (pin 6)))
    (net (code 32) (name "Net-(U1-Pad8)")
      (node (ref U1) (pin 8)))
    (net (code 33) (name "Net-(U1-Pad9)")
      (node (ref U1) (pin 9)))
    (net (code 34) (name /NAND_Gate_front_panel)
      (node (ref U1) (pin 5))
      (node (ref U1) (pin 3))
      (node (ref J1) (pin 16)))
    (net (code 35) (name /Pin_A5_Reserve_front_panel)
      (node (ref J1) (pin 9)))
    (net (code 36) (name "Net-(MD1-Pad24)")
      (node (ref MD1) (pin 24)))
    (net (code 37) (name "Net-(MD1-Pad23)")
      (node (ref MD1) (pin 23)))
    (net (code 38) (name "Net-(MD1-Pad22)")
      (node (ref MD1) (pin 22)))
    (net (code 39) (name "Net-(MD1-Pad19)")
      (node (ref MD1) (pin 19)))
    (net (code 40) (name "Net-(MD1-Pad11)")
      (node (ref R8) (pin 1))
      (node (ref MD1) (pin 11)))
    (net (code 41) (name "Net-(MD1-Pad1)")
      (node (ref MD1) (pin 1)))
    (net (code 42) (name "Net-(MD1-Pad8)")
      (node (ref MD1) (pin 8))
      (node (ref R7) (pin 1)))
    (net (code 43) (name /LED_OPEN_front_panel)
      (node (ref LD1) (pin A))
      (node (ref J1) (pin 11)))
    (net (code 44) (name /SigLeft_front_panel)
      (node (ref J1) (pin 6))
      (node (ref SW2) (pin 2)))
    (net (code 45) (name /SCL_front_panel)
      (node (ref J4) (pin 4))
      (node (ref J1) (pin 5)))
    (net (code 46) (name /DirLeft_front_panel)
      (node (ref SW2) (pin 3))
      (node (ref J1) (pin 4)))
    (net (code 47) (name /SDA_front_panel)
      (node (ref J1) (pin 3))
      (node (ref J4) (pin 3)))
    (net (code 48) (name /KeyLeft_front_panel)
      (node (ref SW2) (pin 4))
      (node (ref J1) (pin 2)))
    (net (code 49) (name /LED_PULSE_front_panel)
      (node (ref J1) (pin 15))
      (node (ref LD3) (pin A)))
    (net (code 50) (name /SigRight_front_panel)
      (node (ref J1) (pin 14))
      (node (ref SW3) (pin 2)))
    (net (code 51) (name /LED_CLOSE_front_panel)
      (node (ref LD2) (pin A))
      (node (ref J1) (pin 13)))
    (net (code 52) (name /DirRight_front_panel)
      (node (ref J1) (pin 12))
      (node (ref SW3) (pin 3)))
    (net (code 53) (name /KeyRight_front_panel)
      (node (ref SW3) (pin 4))
      (node (ref J1) (pin 10)))
    (net (code 54) (name /Pin_9_Reserve_front_panel)
      (node (ref J1) (pin 1)))
    (net (code 55) (name "Net-(U4-Pad5)")
      (node (ref U4) (pin 5)))
    (net (code 56) (name "Net-(U3-Pad5)")
      (node (ref U3) (pin 5)))
    (net (code 57) (name "/Yokis_Transmitter_Common_(White)")
      (node (ref U4) (pin 4))
      (node (ref U3) (pin 4))
      (node (ref J5) (pin 1)))
    (net (code 58) (name /YokisClosePin)
      (node (ref U4) (pin 1))
      (node (ref R4) (pin 1)))
    (net (code 59) (name "/Yokis_Transmitter_Close_(Brown)")
      (node (ref J5) (pin 3))
      (node (ref U4) (pin 6)))
    (net (code 60) (name /YokisOpenPin)
      (node (ref U3) (pin 1))
      (node (ref R5) (pin 1)))
    (net (code 61) (name "/Yokis_Transmitter_Open_(Green)")
      (node (ref U3) (pin 6))
      (node (ref J5) (pin 2)))
    (net (code 62) (name /BuzzerPin)
      (node (ref R6) (pin 2))
      (node (ref J6) (pin 1)))
    (net (code 63) (name "Net-(BZ1-Pad2)")
      (node (ref BZ1) (pin 2)))
    (net (code 64) (name "Net-(BZ1-Pad1)")
      (node (ref BZ1) (pin 1)))))