<?xml version="1.0" standalone="no"?>
 <!DOCTYPE svg PUBLIC "-//W3C//DTD SVG 1.1//EN" 
 "http://www.w3.org/Graphics/SVG/1.1/DTD/svg11.dtd"> 
<svg
  xmlns:svg="http://www.w3.org/2000/svg"
  xmlns="http://www.w3.org/2000/svg"
  xmlns:xlink="http://www.w3.org/1999/xlink"
  version="1.1"
  width="29.700220cm" height="21.000720cm" viewBox="0 0 116930 82680">
<title>SVG Picture created as FrogShutters-B_CrtYd.svg date 2021/04/18 14:04:14 </title>
  <desc>Picture generated by PCBNEW </desc>
<g style="fill:#000000; fill-opacity:1;stroke:#000000; stroke-opacity:1;
stroke-linecap:round; stroke-linejoin:round;"
 transform="translate(0 0) scale(1 1)">
</g>
<g style="fill:#000000; fill-opacity:0.0; 
stroke:#000000; stroke-width:-0.000393701; stroke-opacity:1; 
stroke-linecap:round; stroke-linejoin:round;">
</g>
<g style="fill:#000000; fill-opacity:0.0; 
stroke:#000000; stroke-width:19.685; stroke-opacity:1; 
stroke-linecap:round; stroke-linejoin:round;">
</g>
<g style="fill:#000000; fill-opacity:0.0; 
stroke:#000000; stroke-width:59.0551; stroke-opacity:1; 
stroke-linecap:round; stroke-linejoin:round;">
<rect x="69685.9" y="65357.2" width="42519.7" height="12598.4" rx="0" />
</g>
<g style="fill:#000000; fill-opacity:0.0; 
stroke:#000000; stroke-width:19.685; stroke-opacity:1; 
stroke-linecap:round; stroke-linejoin:round;">
</g>
<g style="fill:#000000; fill-opacity:0.0; 
stroke:#000000; stroke-width:59.0551; stroke-opacity:1; 
stroke-linecap:round; stroke-linejoin:round;">
<rect x="3937.01" y="3937.01" width="109056" height="74806" rx="0" />
</g>
<g style="fill:#000000; fill-opacity:0.0; 
stroke:#000000; stroke-width:19.685; stroke-opacity:1; 
stroke-linecap:round; stroke-linejoin:round;">
</g>
<g style="fill:#000000; fill-opacity:0.0; 
stroke:#000000; stroke-width:59.0551; stroke-opacity:1; 
stroke-linecap:round; stroke-linejoin:round;">
<rect x="4724.41" y="4724.41" width="107481" height="73231.2" rx="0" />
</g>
<g style="fill:#000000; fill-opacity:0.0; 
stroke:#000000; stroke-width:19.685; stroke-opacity:1; 
stroke-linecap:round; stroke-linejoin:round;">
</g>
<g style="fill:#000000; fill-opacity:0.0; 
stroke:#000000; stroke-width:59.0551; stroke-opacity:1; 
stroke-linecap:round; stroke-linejoin:round;">
<path d="M23622 4724
L23622 3937
" />
</g>
<g style="fill:#000000; fill-opacity:0.0; 
stroke:#000000; stroke-width:19.685; stroke-opacity:1; 
stroke-linecap:round; stroke-linejoin:round;">
</g>
<g style="fill:#000000; fill-opacity:0.0; 
stroke:#000000; stroke-width:59.0551; stroke-opacity:1; 
stroke-linecap:round; stroke-linejoin:round;">
<path d="M43307 4724
L43307 3937
" />
</g>
<g style="fill:#000000; fill-opacity:0.0; 
stroke:#000000; stroke-width:19.685; stroke-opacity:1; 
stroke-linecap:round; stroke-linejoin:round;">
</g>
<g style="fill:#000000; fill-opacity:0.0; 
stroke:#000000; stroke-width:59.0551; stroke-opacity:1; 
stroke-linecap:round; stroke-linejoin:round;">
<path d="M62992 4724
L62992 3937
" />
</g>
<g style="fill:#000000; fill-opacity:0.0; 
stroke:#000000; stroke-width:19.685; stroke-opacity:1; 
stroke-linecap:round; stroke-linejoin:round;">
</g>
<g style="fill:#000000; fill-opacity:0.0; 
stroke:#000000; stroke-width:59.0551; stroke-opacity:1; 
stroke-linecap:round; stroke-linejoin:round;">
<path d="M82677 4724
L82677 3937
" />
</g>
<g style="fill:#000000; fill-opacity:0.0; 
stroke:#000000; stroke-width:19.685; stroke-opacity:1; 
stroke-linecap:round; stroke-linejoin:round;">
</g>
<g style="fill:#000000; fill-opacity:0.0; 
stroke:#000000; stroke-width:59.0551; stroke-opacity:1; 
stroke-linecap:round; stroke-linejoin:round;">
<path d="M102362 4724
L102362 3937
" />
</g>
<g style="fill:#000000; fill-opacity:0.0; 
stroke:#000000; stroke-width:19.685; stroke-opacity:1; 
stroke-linecap:round; stroke-linejoin:round;">
</g>
<g style="fill:#000000; fill-opacity:0.0; 
stroke:#000000; stroke-width:59.0551; stroke-opacity:1; 
stroke-linecap:round; stroke-linejoin:round;">
<text x="13779.5" y="4586.61"
textLength="546.494" font-size="682.415" lengthAdjust="spacingAndGlyphs"
text-anchor="start" opacity="0">1</text>
<path d="M14199 4562
L13906 4562
" />
<path d="M14052 4562
L14052 4050
L14004 4123
L13955 4172
L13906 4196
" />
</g>
<g style="fill:#000000; fill-opacity:0.0; 
stroke:#000000; stroke-width:19.685; stroke-opacity:1; 
stroke-linecap:round; stroke-linejoin:round;">
</g>
<g style="fill:#000000; fill-opacity:0.0; 
stroke:#000000; stroke-width:59.0551; stroke-opacity:1; 
stroke-linecap:round; stroke-linejoin:round;">
<text x="33464.6" y="4586.61"
textLength="546.494" font-size="682.415" lengthAdjust="spacingAndGlyphs"
text-anchor="start" opacity="0">2</text>
<path d="M33591 4099
L33615 4074
L33664 4050
L33786 4050
L33835 4074
L33859 4099
L33884 4147
L33884 4196
L33859 4269
L33567 4562
L33884 4562
" />
</g>
<g style="fill:#000000; fill-opacity:0.0; 
stroke:#000000; stroke-width:19.685; stroke-opacity:1; 
stroke-linecap:round; stroke-linejoin:round;">
</g>
<g style="fill:#000000; fill-opacity:0.0; 
stroke:#000000; stroke-width:59.0551; stroke-opacity:1; 
stroke-linecap:round; stroke-linejoin:round;">
<text x="53149.6" y="4586.61"
textLength="546.494" font-size="682.415" lengthAdjust="spacingAndGlyphs"
text-anchor="start" opacity="0">3</text>
<path d="M53252 4050
L53569 4050
L53398 4245
L53471 4245
L53520 4269
L53544 4294
L53569 4342
L53569 4464
L53544 4513
L53520 4537
L53471 4562
L53325 4562
L53276 4537
L53252 4513
" />
</g>
<g style="fill:#000000; fill-opacity:0.0; 
stroke:#000000; stroke-width:19.685; stroke-opacity:1; 
stroke-linecap:round; stroke-linejoin:round;">
</g>
<g style="fill:#000000; fill-opacity:0.0; 
stroke:#000000; stroke-width:59.0551; stroke-opacity:1; 
stroke-linecap:round; stroke-linejoin:round;">
<text x="72834.6" y="4586.61"
textLength="546.494" font-size="682.415" lengthAdjust="spacingAndGlyphs"
text-anchor="start" opacity="0">4</text>
<path d="M73205 4221
L73205 4562
" />
<path d="M73083 4026
L72961 4391
L73278 4391
" />
</g>
<g style="fill:#000000; fill-opacity:0.0; 
stroke:#000000; stroke-width:19.685; stroke-opacity:1; 
stroke-linecap:round; stroke-linejoin:round;">
</g>
<g style="fill:#000000; fill-opacity:0.0; 
stroke:#000000; stroke-width:59.0551; stroke-opacity:1; 
stroke-linecap:round; stroke-linejoin:round;">
<text x="92519.7" y="4586.61"
textLength="546.494" font-size="682.415" lengthAdjust="spacingAndGlyphs"
text-anchor="start" opacity="0">5</text>
<path d="M92914 4050
L92671 4050
L92646 4294
L92671 4269
L92719 4245
L92841 4245
L92890 4269
L92914 4294
L92939 4342
L92939 4464
L92914 4513
L92890 4537
L92841 4562
L92719 4562
L92671 4537
L92646 4513
" />
</g>
<g style="fill:#000000; fill-opacity:0.0; 
stroke:#000000; stroke-width:19.685; stroke-opacity:1; 
stroke-linecap:round; stroke-linejoin:round;">
</g>
<g style="fill:#000000; fill-opacity:0.0; 
stroke:#000000; stroke-width:59.0551; stroke-opacity:1; 
stroke-linecap:round; stroke-linejoin:round;">
<text x="112205" y="4586.61"
textLength="546.494" font-size="682.415" lengthAdjust="spacingAndGlyphs"
text-anchor="start" opacity="0">6</text>
<path d="M112575 4050
L112477 4050
L112429 4074
L112404 4099
L112356 4172
L112331 4269
L112331 4464
L112356 4513
L112380 4537
L112429 4562
L112526 4562
L112575 4537
L112599 4513
L112624 4464
L112624 4342
L112599 4294
L112575 4269
L112526 4245
L112429 4245
L112380 4269
L112356 4294
L112331 4342
" />
</g>
<g style="fill:#000000; fill-opacity:0.0; 
stroke:#000000; stroke-width:19.685; stroke-opacity:1; 
stroke-linecap:round; stroke-linejoin:round;">
</g>
<g style="fill:#000000; fill-opacity:0.0; 
stroke:#000000; stroke-width:59.0551; stroke-opacity:1; 
stroke-linecap:round; stroke-linejoin:round;">
<path d="M23622 77955
L23622 78742
" />
</g>
<g style="fill:#000000; fill-opacity:0.0; 
stroke:#000000; stroke-width:19.685; stroke-opacity:1; 
stroke-linecap:round; stroke-linejoin:round;">
</g>
<g style="fill:#000000; fill-opacity:0.0; 
stroke:#000000; stroke-width:59.0551; stroke-opacity:1; 
stroke-linecap:round; stroke-linejoin:round;">
<path d="M43307 77955
L43307 78742
" />
</g>
<g style="fill:#000000; fill-opacity:0.0; 
stroke:#000000; stroke-width:19.685; stroke-opacity:1; 
stroke-linecap:round; stroke-linejoin:round;">
</g>
<g style="fill:#000000; fill-opacity:0.0; 
stroke:#000000; stroke-width:59.0551; stroke-opacity:1; 
stroke-linecap:round; stroke-linejoin:round;">
<path d="M62992 77955
L62992 78742
" />
</g>
<g style="fill:#000000; fill-opacity:0.0; 
stroke:#000000; stroke-width:19.685; stroke-opacity:1; 
stroke-linecap:round; stroke-linejoin:round;">
</g>
<g style="fill:#000000; fill-opacity:0.0; 
stroke:#000000; stroke-width:59.0551; stroke-opacity:1; 
stroke-linecap:round; stroke-linejoin:round;">
<path d="M82677 77955
L82677 78742
" />
</g>
<g style="fill:#000000; fill-opacity:0.0; 
stroke:#000000; stroke-width:19.685; stroke-opacity:1; 
stroke-linecap:round; stroke-linejoin:round;">
</g>
<g style="fill:#000000; fill-opacity:0.0; 
stroke:#000000; stroke-width:59.0551; stroke-opacity:1; 
stroke-linecap:round; stroke-linejoin:round;">
<path d="M102362 77955
L102362 78742
" />
</g>
<g style="fill:#000000; fill-opacity:0.0; 
stroke:#000000; stroke-width:19.685; stroke-opacity:1; 
stroke-linecap:round; stroke-linejoin:round;">
</g>
<g style="fill:#000000; fill-opacity:0.0; 
stroke:#000000; stroke-width:59.0551; stroke-opacity:1; 
stroke-linecap:round; stroke-linejoin:round;">
<text x="13779.5" y="78605.2"
textLength="546.494" font-size="682.415" lengthAdjust="spacingAndGlyphs"
text-anchor="start" opacity="0">1</text>
<path d="M14199 78580
L13906 78580
" />
<path d="M14052 78580
L14052 78069
L14004 78142
L13955 78190
L13906 78215
" />
</g>
<g style="fill:#000000; fill-opacity:0.0; 
stroke:#000000; stroke-width:19.685; stroke-opacity:1; 
stroke-linecap:round; stroke-linejoin:round;">
</g>
<g style="fill:#000000; fill-opacity:0.0; 
stroke:#000000; stroke-width:59.0551; stroke-opacity:1; 
stroke-linecap:round; stroke-linejoin:round;">
<text x="33464.6" y="78605.2"
textLength="546.494" font-size="682.415" lengthAdjust="spacingAndGlyphs"
text-anchor="start" opacity="0">2</text>
<path d="M33591 78117
L33615 78093
L33664 78069
L33786 78069
L33835 78093
L33859 78117
L33884 78166
L33884 78215
L33859 78288
L33567 78580
L33884 78580
" />
</g>
<g style="fill:#000000; fill-opacity:0.0; 
stroke:#000000; stroke-width:19.685; stroke-opacity:1; 
stroke-linecap:round; stroke-linejoin:round;">
</g>
<g style="fill:#000000; fill-opacity:0.0; 
stroke:#000000; stroke-width:59.0551; stroke-opacity:1; 
stroke-linecap:round; stroke-linejoin:round;">
<text x="53149.6" y="78605.2"
textLength="546.494" font-size="682.415" lengthAdjust="spacingAndGlyphs"
text-anchor="start" opacity="0">3</text>
<path d="M53252 78069
L53569 78069
L53398 78263
L53471 78263
L53520 78288
L53544 78312
L53569 78361
L53569 78483
L53544 78532
L53520 78556
L53471 78580
L53325 78580
L53276 78556
L53252 78532
" />
</g>
<g style="fill:#000000; fill-opacity:0.0; 
stroke:#000000; stroke-width:19.685; stroke-opacity:1; 
stroke-linecap:round; stroke-linejoin:round;">
</g>
<g style="fill:#000000; fill-opacity:0.0; 
stroke:#000000; stroke-width:59.0551; stroke-opacity:1; 
stroke-linecap:round; stroke-linejoin:round;">
<text x="72834.6" y="78605.2"
textLength="546.494" font-size="682.415" lengthAdjust="spacingAndGlyphs"
text-anchor="start" opacity="0">4</text>
<path d="M73205 78239
L73205 78580
" />
<path d="M73083 78044
L72961 78410
L73278 78410
" />
</g>
<g style="fill:#000000; fill-opacity:0.0; 
stroke:#000000; stroke-width:19.685; stroke-opacity:1; 
stroke-linecap:round; stroke-linejoin:round;">
</g>
<g style="fill:#000000; fill-opacity:0.0; 
stroke:#000000; stroke-width:59.0551; stroke-opacity:1; 
stroke-linecap:round; stroke-linejoin:round;">
<text x="92519.7" y="78605.2"
textLength="546.494" font-size="682.415" lengthAdjust="spacingAndGlyphs"
text-anchor="start" opacity="0">5</text>
<path d="M92914 78069
L92671 78069
L92646 78312
L92671 78288
L92719 78263
L92841 78263
L92890 78288
L92914 78312
L92939 78361
L92939 78483
L92914 78532
L92890 78556
L92841 78580
L92719 78580
L92671 78556
L92646 78532
" />
</g>
<g style="fill:#000000; fill-opacity:0.0; 
stroke:#000000; stroke-width:19.685; stroke-opacity:1; 
stroke-linecap:round; stroke-linejoin:round;">
</g>
<g style="fill:#000000; fill-opacity:0.0; 
stroke:#000000; stroke-width:59.0551; stroke-opacity:1; 
stroke-linecap:round; stroke-linejoin:round;">
<text x="112205" y="78605.2"
textLength="546.494" font-size="682.415" lengthAdjust="spacingAndGlyphs"
text-anchor="start" opacity="0">6</text>
<path d="M112575 78069
L112477 78069
L112429 78093
L112404 78117
L112356 78190
L112331 78288
L112331 78483
L112356 78532
L112380 78556
L112429 78580
L112526 78580
L112575 78556
L112599 78532
L112624 78483
L112624 78361
L112599 78312
L112575 78288
L112526 78263
L112429 78263
L112380 78288
L112356 78312
L112331 78361
" />
</g>
<g style="fill:#000000; fill-opacity:0.0; 
stroke:#000000; stroke-width:19.685; stroke-opacity:1; 
stroke-linecap:round; stroke-linejoin:round;">
</g>
<g style="fill:#000000; fill-opacity:0.0; 
stroke:#000000; stroke-width:59.0551; stroke-opacity:1; 
stroke-linecap:round; stroke-linejoin:round;">
<path d="M3937 23622
L4724 23622
" />
</g>
<g style="fill:#000000; fill-opacity:0.0; 
stroke:#000000; stroke-width:19.685; stroke-opacity:1; 
stroke-linecap:round; stroke-linejoin:round;">
</g>
<g style="fill:#000000; fill-opacity:0.0; 
stroke:#000000; stroke-width:59.0551; stroke-opacity:1; 
stroke-linecap:round; stroke-linejoin:round;">
<path d="M3937 43307
L4724 43307
" />
</g>
<g style="fill:#000000; fill-opacity:0.0; 
stroke:#000000; stroke-width:19.685; stroke-opacity:1; 
stroke-linecap:round; stroke-linejoin:round;">
</g>
<g style="fill:#000000; fill-opacity:0.0; 
stroke:#000000; stroke-width:59.0551; stroke-opacity:1; 
stroke-linecap:round; stroke-linejoin:round;">
<path d="M3937 62992
L4724 62992
" />
</g>
<g style="fill:#000000; fill-opacity:0.0; 
stroke:#000000; stroke-width:19.685; stroke-opacity:1; 
stroke-linecap:round; stroke-linejoin:round;">
</g>
<g style="fill:#000000; fill-opacity:0.0; 
stroke:#000000; stroke-width:59.0551; stroke-opacity:1; 
stroke-linecap:round; stroke-linejoin:round;">
<text x="4330.71" y="14035.4"
textLength="497.75" font-size="682.415" lengthAdjust="spacingAndGlyphs"
text-anchor="middle" opacity="0">A</text>
<path d="M4208 13864
L4452 13864
" />
<path d="M4160 14011
L4330 13499
L4501 14011
" />
</g>
<g style="fill:#000000; fill-opacity:0.0; 
stroke:#000000; stroke-width:19.685; stroke-opacity:1; 
stroke-linecap:round; stroke-linejoin:round;">
</g>
<g style="fill:#000000; fill-opacity:0.0; 
stroke:#000000; stroke-width:59.0551; stroke-opacity:1; 
stroke-linecap:round; stroke-linejoin:round;">
<text x="4330.71" y="33720.5"
textLength="570.866" font-size="682.415" lengthAdjust="spacingAndGlyphs"
text-anchor="middle" opacity="0">B</text>
<path d="M4367 33428
L4440 33452
L4464 33476
L4489 33525
L4489 33598
L4464 33647
L4440 33671
L4391 33696
L4196 33696
L4196 33184
L4367 33184
L4416 33208
L4440 33233
L4464 33281
L4464 33330
L4440 33379
L4416 33403
L4367 33428
L4196 33428
" />
</g>
<g style="fill:#000000; fill-opacity:0.0; 
stroke:#000000; stroke-width:19.685; stroke-opacity:1; 
stroke-linecap:round; stroke-linejoin:round;">
</g>
<g style="fill:#000000; fill-opacity:0.0; 
stroke:#000000; stroke-width:59.0551; stroke-opacity:1; 
stroke-linecap:round; stroke-linejoin:round;">
<text x="4330.71" y="53405.5"
textLength="570.866" font-size="682.415" lengthAdjust="spacingAndGlyphs"
text-anchor="middle" opacity="0">C</text>
<path d="M4489 53332
L4464 53356
L4391 53381
L4342 53381
L4269 53356
L4221 53308
L4196 53259
L4172 53161
L4172 53088
L4196 52991
L4221 52942
L4269 52893
L4342 52869
L4391 52869
L4464 52893
L4489 52918
" />
</g>
<g style="fill:#000000; fill-opacity:0.0; 
stroke:#000000; stroke-width:19.685; stroke-opacity:1; 
stroke-linecap:round; stroke-linejoin:round;">
</g>
<g style="fill:#000000; fill-opacity:0.0; 
stroke:#000000; stroke-width:59.0551; stroke-opacity:1; 
stroke-linecap:round; stroke-linejoin:round;">
<text x="4330.71" y="73090.6"
textLength="570.866" font-size="682.415" lengthAdjust="spacingAndGlyphs"
text-anchor="middle" opacity="0">D</text>
<path d="M4196 73066
L4196 72554
L4318 72554
L4391 72578
L4440 72627
L4464 72676
L4489 72773
L4489 72846
L4464 72944
L4440 72993
L4391 73041
L4318 73066
L4196 73066
" />
</g>
<g style="fill:#000000; fill-opacity:0.0; 
stroke:#000000; stroke-width:19.685; stroke-opacity:1; 
stroke-linecap:round; stroke-linejoin:round;">
</g>
<g style="fill:#000000; fill-opacity:0.0; 
stroke:#000000; stroke-width:59.0551; stroke-opacity:1; 
stroke-linecap:round; stroke-linejoin:round;">
<path d="M112992 23622
L112205 23622
" />
</g>
<g style="fill:#000000; fill-opacity:0.0; 
stroke:#000000; stroke-width:19.685; stroke-opacity:1; 
stroke-linecap:round; stroke-linejoin:round;">
</g>
<g style="fill:#000000; fill-opacity:0.0; 
stroke:#000000; stroke-width:59.0551; stroke-opacity:1; 
stroke-linecap:round; stroke-linejoin:round;">
<path d="M112992 43307
L112205 43307
" />
</g>
<g style="fill:#000000; fill-opacity:0.0; 
stroke:#000000; stroke-width:19.685; stroke-opacity:1; 
stroke-linecap:round; stroke-linejoin:round;">
</g>
<g style="fill:#000000; fill-opacity:0.0; 
stroke:#000000; stroke-width:59.0551; stroke-opacity:1; 
stroke-linecap:round; stroke-linejoin:round;">
<path d="M112992 62992
L112205 62992
" />
</g>
<g style="fill:#000000; fill-opacity:0.0; 
stroke:#000000; stroke-width:19.685; stroke-opacity:1; 
stroke-linecap:round; stroke-linejoin:round;">
</g>
<g style="fill:#000000; fill-opacity:0.0; 
stroke:#000000; stroke-width:59.0551; stroke-opacity:1; 
stroke-linecap:round; stroke-linejoin:round;">
<text x="112599" y="14035.4"
textLength="497.75" font-size="682.415" lengthAdjust="spacingAndGlyphs"
text-anchor="middle" opacity="0">A</text>
<path d="M112477 13864
L112721 13864
" />
<path d="M112428 14011
L112599 13499
L112769 14011
" />
</g>
<g style="fill:#000000; fill-opacity:0.0; 
stroke:#000000; stroke-width:19.685; stroke-opacity:1; 
stroke-linecap:round; stroke-linejoin:round;">
</g>
<g style="fill:#000000; fill-opacity:0.0; 
stroke:#000000; stroke-width:59.0551; stroke-opacity:1; 
stroke-linecap:round; stroke-linejoin:round;">
<text x="112599" y="33720.5"
textLength="570.866" font-size="682.415" lengthAdjust="spacingAndGlyphs"
text-anchor="middle" opacity="0">B</text>
<path d="M112635 33428
L112708 33452
L112733 33476
L112757 33525
L112757 33598
L112733 33647
L112708 33671
L112660 33696
L112465 33696
L112465 33184
L112635 33184
L112684 33208
L112708 33233
L112733 33281
L112733 33330
L112708 33379
L112684 33403
L112635 33428
L112465 33428
" />
</g>
<g style="fill:#000000; fill-opacity:0.0; 
stroke:#000000; stroke-width:19.685; stroke-opacity:1; 
stroke-linecap:round; stroke-linejoin:round;">
</g>
<g style="fill:#000000; fill-opacity:0.0; 
stroke:#000000; stroke-width:59.0551; stroke-opacity:1; 
stroke-linecap:round; stroke-linejoin:round;">
<text x="112599" y="53405.5"
textLength="570.866" font-size="682.415" lengthAdjust="spacingAndGlyphs"
text-anchor="middle" opacity="0">C</text>
<path d="M112757 53332
L112733 53356
L112660 53381
L112611 53381
L112538 53356
L112489 53308
L112465 53259
L112440 53161
L112440 53088
L112465 52991
L112489 52942
L112538 52893
L112611 52869
L112660 52869
L112733 52893
L112757 52918
" />
</g>
<g style="fill:#000000; fill-opacity:0.0; 
stroke:#000000; stroke-width:19.685; stroke-opacity:1; 
stroke-linecap:round; stroke-linejoin:round;">
</g>
<g style="fill:#000000; fill-opacity:0.0; 
stroke:#000000; stroke-width:59.0551; stroke-opacity:1; 
stroke-linecap:round; stroke-linejoin:round;">
<text x="112599" y="73090.6"
textLength="570.866" font-size="682.415" lengthAdjust="spacingAndGlyphs"
text-anchor="middle" opacity="0">D</text>
<path d="M112465 73066
L112465 72554
L112587 72554
L112660 72578
L112708 72627
L112733 72676
L112757 72773
L112757 72846
L112733 72944
L112708 72993
L112660 73041
L112587 73066
L112465 73066
" />
</g>
<g style="fill:#000000; fill-opacity:0.0; 
stroke:#000000; stroke-width:19.685; stroke-opacity:1; 
stroke-linecap:round; stroke-linejoin:round;">
</g>
<g style="fill:#000000; fill-opacity:0.0; 
stroke:#000000; stroke-width:59.0551; stroke-opacity:1; 
stroke-linecap:round; stroke-linejoin:round;">
<text x="78741" y="76321.7"
textLength="8720.47" font-size="787.402" lengthAdjust="spacingAndGlyphs"
text-anchor="start" opacity="0">Date: 2021-04-18</text>
<path d="M78911 76293
L78911 75703
L79051 75703
L79136 75731
L79192 75787
L79220 75843
L79248 75956
L79248 76040
L79220 76153
L79192 76209
L79136 76265
L79051 76293
L78911 76293
" />
<path d="M79754 76293
L79754 75984
L79726 75928
L79670 75899
L79557 75899
L79501 75928
" />
<path d="M79754 76265
L79698 76293
L79557 76293
L79501 76265
L79473 76209
L79473 76153
L79501 76096
L79557 76068
L79698 76068
L79754 76040
" />
<path d="M79951 75899
L80176 75899
" />
<path d="M80036 75703
L80036 76209
L80064 76265
L80120 76293
L80176 76293
" />
<path d="M80598 76265
L80542 76293
L80429 76293
L80373 76265
L80345 76209
L80345 75984
L80373 75928
L80429 75899
L80542 75899
L80598 75928
L80626 75984
L80626 76040
L80345 76096
" />
<path d="M80879 76237
L80907 76265
L80879 76293
L80851 76265
L80879 76237
L80879 76293
" />
<path d="M80879 75928
L80907 75956
L80879 75984
L80851 75956
L80879 75928
L80879 75984
" />
<path d="M81582 75759
L81610 75731
L81667 75703
L81807 75703
L81863 75731
L81892 75759
L81920 75815
L81920 75871
L81892 75956
L81554 76293
L81920 76293
" />
<path d="M82285 75703
L82341 75703
L82398 75731
L82426 75759
L82454 75815
L82482 75928
L82482 76068
L82454 76181
L82426 76237
L82398 76265
L82341 76293
L82285 76293
L82229 76265
L82201 76237
L82173 76181
L82145 76068
L82145 75928
L82173 75815
L82201 75759
L82229 75731
L82285 75703
" />
<path d="M82707 75759
L82735 75731
L82791 75703
L82932 75703
L82988 75731
L83016 75759
L83045 75815
L83045 75871
L83016 75956
L82679 76293
L83045 76293
" />
<path d="M83607 76293
L83269 76293
" />
<path d="M83438 76293
L83438 75703
L83382 75787
L83326 75843
L83269 75871
" />
<path d="M83860 76068
L84310 76068
" />
<path d="M84704 75703
L84760 75703
L84816 75731
L84844 75759
L84872 75815
L84901 75928
L84901 76068
L84872 76181
L84844 76237
L84816 76265
L84760 76293
L84704 76293
L84647 76265
L84619 76237
L84591 76181
L84563 76068
L84563 75928
L84591 75815
L84619 75759
L84647 75731
L84704 75703
" />
<path d="M85407 75899
L85407 76293
" />
<path d="M85266 75674
L85126 76096
L85491 76096
" />
<path d="M85716 76068
L86166 76068
" />
<path d="M86757 76293
L86419 76293
" />
<path d="M86588 76293
L86588 75703
L86532 75787
L86475 75843
L86419 75871
" />
<path d="M87094 75956
L87038 75928
L87010 75899
L86982 75843
L86982 75815
L87010 75759
L87038 75731
L87094 75703
L87206 75703
L87263 75731
L87291 75759
L87319 75815
L87319 75843
L87291 75899
L87263 75928
L87206 75956
L87094 75956
L87038 75984
L87010 76012
L86982 76068
L86982 76181
L87010 76237
L87038 76265
L87094 76293
L87206 76293
L87263 76265
L87291 76237
L87319 76181
L87319 76068
L87291 76012
L87263 75984
L87206 75956
" />
</g>
<g style="fill:#000000; fill-opacity:0.0; 
stroke:#000000; stroke-width:19.685; stroke-opacity:1; 
stroke-linecap:round; stroke-linejoin:round;">
</g>
<g style="fill:#000000; fill-opacity:0.0; 
stroke:#000000; stroke-width:59.0551; stroke-opacity:1; 
stroke-linecap:round; stroke-linejoin:round;">
<path d="M69685 76577
L112205 76577
" />
</g>
<g style="fill:#000000; fill-opacity:0.0; 
stroke:#000000; stroke-width:19.685; stroke-opacity:1; 
stroke-linecap:round; stroke-linejoin:round;">
</g>
<g style="fill:#000000; fill-opacity:0.0; 
stroke:#000000; stroke-width:59.0551; stroke-opacity:1; 
stroke-linecap:round; stroke-linejoin:round;">
<text x="70079.6" y="77424.1"
textLength="25171.5" font-size="787.402" lengthAdjust="spacingAndGlyphs"
text-anchor="start" opacity="0">KiCad E.D.A.  kicad 5.1.9-73d0e3b20d~88~ubuntu18.04.1</text>
<path d="M70249 77395
L70249 76805
" />
<path d="M70587 77395
L70334 77058
" />
<path d="M70587 76805
L70249 77142
" />
<path d="M70840 77395
L70840 77002
" />
<path d="M70840 76805
L70812 76833
L70840 76861
L70868 76833
L70840 76805
L70840 76861
" />
<path d="M71458 77339
L71430 77367
L71346 77395
L71290 77395
L71205 77367
L71149 77311
L71121 77255
L71093 77142
L71093 77058
L71121 76946
L71149 76889
L71205 76833
L71290 76805
L71346 76805
L71430 76833
L71458 76861
" />
<path d="M71965 77395
L71965 77086
L71937 77030
L71880 77002
L71768 77002
L71712 77030
" />
<path d="M71965 77367
L71908 77395
L71768 77395
L71712 77367
L71683 77311
L71683 77255
L71712 77199
L71768 77171
L71908 77171
L71965 77142
" />
<path d="M72499 77395
L72499 76805
" />
<path d="M72499 77367
L72443 77395
L72330 77395
L72274 77367
L72246 77339
L72218 77283
L72218 77114
L72246 77058
L72274 77030
L72330 77002
L72443 77002
L72499 77030
" />
<path d="M73230 77086
L73427 77086
" />
<path d="M73511 77395
L73230 77395
L73230 76805
L73511 76805
" />
<path d="M73764 77339
L73793 77367
L73764 77395
L73736 77367
L73764 77339
L73764 77395
" />
<path d="M74046 77395
L74046 76805
L74186 76805
L74271 76833
L74327 76889
L74355 76946
L74383 77058
L74383 77142
L74355 77255
L74327 77311
L74271 77367
L74186 77395
L74046 77395
" />
<path d="M74636 77339
L74664 77367
L74636 77395
L74608 77367
L74636 77339
L74636 77395
" />
<path d="M74889 77227
L75171 77227
" />
<path d="M74833 77395
L75030 76805
L75227 77395
" />
<path d="M75424 77339
L75452 77367
L75424 77395
L75395 77367
L75424 77339
L75424 77395
" />
<path d="M76605 77395
L76605 76805
" />
<path d="M76661 77171
L76830 77395
" />
<path d="M76830 77002
L76605 77227
" />
<path d="M77083 77395
L77083 77002
" />
<path d="M77083 76805
L77055 76833
L77083 76861
L77111 76833
L77083 76805
L77083 76861
" />
<path d="M77617 77367
L77561 77395
L77448 77395
L77392 77367
L77364 77339
L77336 77283
L77336 77114
L77364 77058
L77392 77030
L77448 77002
L77561 77002
L77617 77030
" />
<path d="M78123 77395
L78123 77086
L78095 77030
L78039 77002
L77926 77002
L77870 77030
" />
<path d="M78123 77367
L78067 77395
L77926 77395
L77870 77367
L77842 77311
L77842 77255
L77870 77199
L77926 77171
L78067 77171
L78123 77142
" />
<path d="M78658 77395
L78658 76805
" />
<path d="M78658 77367
L78601 77395
L78489 77395
L78433 77367
L78404 77339
L78376 77283
L78376 77114
L78404 77058
L78433 77030
L78489 77002
L78601 77002
L78658 77030
" />
<path d="M79670 76805
L79389 76805
L79361 77086
L79389 77058
L79445 77030
L79586 77030
L79642 77058
L79670 77086
L79698 77142
L79698 77283
L79670 77339
L79642 77367
L79586 77395
L79445 77395
L79389 77367
L79361 77339
" />
<path d="M79951 77339
L79979 77367
L79951 77395
L79923 77367
L79951 77339
L79951 77395
" />
<path d="M80542 77395
L80204 77395
" />
<path d="M80373 77395
L80373 76805
L80317 76889
L80260 76946
L80204 76974
" />
<path d="M80795 77339
L80823 77367
L80795 77395
L80767 77367
L80795 77339
L80795 77395
" />
<path d="M81104 77395
L81217 77395
L81273 77367
L81301 77339
L81357 77255
L81385 77142
L81385 76917
L81357 76861
L81329 76833
L81273 76805
L81160 76805
L81104 76833
L81076 76861
L81048 76917
L81048 77058
L81076 77114
L81104 77142
L81160 77171
L81273 77171
L81329 77142
L81357 77114
L81385 77058
" />
<path d="M81638 77171
L82088 77171
" />
<path d="M82313 76805
L82707 76805
L82454 77395
" />
<path d="M82876 76805
L83241 76805
L83045 77030
L83129 77030
L83185 77058
L83213 77086
L83241 77142
L83241 77283
L83213 77339
L83185 77367
L83129 77395
L82960 77395
L82904 77367
L82876 77339
" />
<path d="M83748 77395
L83748 76805
" />
<path d="M83748 77367
L83691 77395
L83579 77395
L83523 77367
L83494 77339
L83466 77283
L83466 77114
L83494 77058
L83523 77030
L83579 77002
L83691 77002
L83748 77030
" />
<path d="M84141 76805
L84197 76805
L84254 76833
L84282 76861
L84310 76917
L84338 77030
L84338 77171
L84310 77283
L84282 77339
L84254 77367
L84197 77395
L84141 77395
L84085 77367
L84057 77339
L84029 77283
L84001 77171
L84001 77030
L84029 76917
L84057 76861
L84085 76833
L84141 76805
" />
<path d="M84816 77367
L84760 77395
L84647 77395
L84591 77367
L84563 77311
L84563 77086
L84591 77030
L84647 77002
L84760 77002
L84816 77030
L84844 77086
L84844 77142
L84563 77199
" />
<path d="M85041 76805
L85407 76805
L85210 77030
L85294 77030
L85350 77058
L85379 77086
L85407 77142
L85407 77283
L85379 77339
L85350 77367
L85294 77395
L85126 77395
L85069 77367
L85041 77339
" />
<path d="M85660 77395
L85660 76805
" />
<path d="M85660 77030
L85716 77002
L85829 77002
L85885 77030
L85913 77058
L85941 77114
L85941 77283
L85913 77339
L85885 77367
L85829 77395
L85716 77395
L85660 77367
" />
<path d="M86166 76861
L86194 76833
L86250 76805
L86391 76805
L86447 76833
L86475 76861
L86503 76917
L86503 76974
L86475 77058
L86138 77395
L86503 77395
" />
<path d="M86869 76805
L86925 76805
L86982 76833
L87010 76861
L87038 76917
L87066 77030
L87066 77171
L87038 77283
L87010 77339
L86982 77367
L86925 77395
L86869 77395
L86813 77367
L86785 77339
L86757 77283
L86728 77171
L86728 77030
L86757 76917
L86785 76861
L86813 76833
L86869 76805
" />
<path d="M87572 77395
L87572 76805
" />
<path d="M87572 77367
L87516 77395
L87403 77395
L87347 77367
L87319 77339
L87291 77283
L87291 77114
L87319 77058
L87347 77030
L87403 77002
L87516 77002
L87572 77030
" />
<path d="M87713 76644
L88275 76644
" />
<path d="M87938 77058
L87881 77030
L87853 77002
L87825 76946
L87825 76917
L87853 76861
L87881 76833
L87938 76805
L88050 76805
L88106 76833
L88135 76861
L88163 76917
L88163 76946
L88135 77002
L88106 77030
L88050 77058
L87938 77058
L87881 77086
L87853 77114
L87825 77171
L87825 77283
L87853 77339
L87881 77367
L87938 77395
L88050 77395
L88106 77367
L88135 77339
L88163 77283
L88163 77171
L88135 77114
L88106 77086
L88050 77058
" />
<path d="M88275 76644
L88838 76644
" />
<path d="M88500 77058
L88444 77030
L88416 77002
L88388 76946
L88388 76917
L88416 76861
L88444 76833
L88500 76805
L88613 76805
L88669 76833
L88697 76861
L88725 76917
L88725 76946
L88697 77002
L88669 77030
L88613 77058
L88500 77058
L88444 77086
L88416 77114
L88388 77171
L88388 77283
L88416 77339
L88444 77367
L88500 77395
L88613 77395
L88669 77367
L88697 77339
L88725 77283
L88725 77171
L88697 77114
L88669 77086
L88613 77058
" />
<path d="M89231 77002
L89231 77395
" />
<path d="M88978 77002
L88978 77311
L89006 77367
L89063 77395
L89147 77395
L89203 77367
L89231 77339
" />
<path d="M89512 77395
L89512 76805
" />
<path d="M89512 77030
L89569 77002
L89681 77002
L89737 77030
L89766 77058
L89794 77114
L89794 77283
L89766 77339
L89737 77367
L89681 77395
L89569 77395
L89512 77367
" />
<path d="M90300 77002
L90300 77395
" />
<path d="M90047 77002
L90047 77311
L90075 77367
L90131 77395
L90215 77395
L90272 77367
L90300 77339
" />
<path d="M90581 77002
L90581 77395
" />
<path d="M90581 77058
L90609 77030
L90665 77002
L90750 77002
L90806 77030
L90834 77086
L90834 77395
" />
<path d="M91031 77002
L91256 77002
" />
<path d="M91115 76805
L91115 77311
L91144 77367
L91200 77395
L91256 77395
" />
<path d="M91706 77002
L91706 77395
" />
<path d="M91453 77002
L91453 77311
L91481 77367
L91537 77395
L91622 77395
L91678 77367
L91706 77339
" />
<path d="M92296 77395
L91959 77395
" />
<path d="M92128 77395
L92128 76805
L92072 76889
L92015 76946
L91959 76974
" />
<path d="M92634 77058
L92578 77030
L92550 77002
L92521 76946
L92521 76917
L92550 76861
L92578 76833
L92634 76805
L92746 76805
L92803 76833
L92831 76861
L92859 76917
L92859 76946
L92831 77002
L92803 77030
L92746 77058
L92634 77058
L92578 77086
L92550 77114
L92521 77171
L92521 77283
L92550 77339
L92578 77367
L92634 77395
L92746 77395
L92803 77367
L92831 77339
L92859 77283
L92859 77171
L92831 77114
L92803 77086
L92746 77058
" />
<path d="M93112 77339
L93140 77367
L93112 77395
L93084 77367
L93112 77339
L93112 77395
" />
<path d="M93506 76805
L93562 76805
L93618 76833
L93646 76861
L93674 76917
L93703 77030
L93703 77171
L93674 77283
L93646 77339
L93618 77367
L93562 77395
L93506 77395
L93449 77367
L93421 77339
L93393 77283
L93365 77171
L93365 77030
L93393 76917
L93421 76861
L93449 76833
L93506 76805
" />
<path d="M94209 77002
L94209 77395
" />
<path d="M94068 76777
L93928 77199
L94293 77199
" />
<path d="M94518 77339
L94546 77367
L94518 77395
L94490 77367
L94518 77339
L94518 77395
" />
<path d="M95109 77395
L94771 77395
" />
<path d="M94940 77395
L94940 76805
L94884 76889
L94827 76946
L94771 76974
" />
</g>
<g style="fill:#000000; fill-opacity:0.0; 
stroke:#000000; stroke-width:19.685; stroke-opacity:1; 
stroke-linecap:round; stroke-linejoin:round;">
</g>
<g style="fill:#000000; fill-opacity:0.0; 
stroke:#000000; stroke-width:59.0551; stroke-opacity:1; 
stroke-linecap:round; stroke-linejoin:round;">
<path d="M69685 75396
L112205 75396
" />
</g>
<g style="fill:#000000; fill-opacity:0.0; 
stroke:#000000; stroke-width:19.685; stroke-opacity:1; 
stroke-linecap:round; stroke-linejoin:round;">
</g>
<g style="fill:#000000; fill-opacity:0.0; 
stroke:#000000; stroke-width:118.11; stroke-opacity:1; 
stroke-linecap:round; stroke-linejoin:round;">
<text x="103544" y="76321.7"
textLength="3742.97" font-size="787.402" lengthAdjust="spacingAndGlyphs"
text-anchor="start" opacity="0">Rev: 2.3</text>
<path d="M104099 76293
L103902 76012
" />
<path d="M103761 76293
L103761 75703
L103986 75703
L104042 75731
L104070 75759
L104099 75815
L104099 75899
L104070 75956
L104042 75984
L103986 76012
L103761 76012
" />
<path d="M104577 76265
L104520 76293
L104408 76293
L104352 76265
L104323 76209
L104323 75984
L104352 75928
L104408 75899
L104520 75899
L104577 75928
L104605 75984
L104605 76040
L104323 76096
" />
<path d="M104802 75899
L104942 76293
L105083 75899
" />
<path d="M105308 76237
L105336 76265
L105308 76293
L105280 76265
L105308 76237
L105308 76293
" />
<path d="M105308 75928
L105336 75956
L105308 75984
L105280 75956
L105308 75928
L105308 75984
" />
<path d="M106011 75759
L106039 75731
L106095 75703
L106236 75703
L106292 75731
L106320 75759
L106348 75815
L106348 75871
L106320 75956
L105983 76293
L106348 76293
" />
<path d="M106601 76237
L106629 76265
L106601 76293
L106573 76265
L106601 76237
L106601 76293
" />
<path d="M106826 75703
L107192 75703
L106995 75928
L107079 75928
L107136 75956
L107164 75984
L107192 76040
L107192 76181
L107164 76237
L107136 76265
L107079 76293
L106911 76293
L106854 76265
L106826 76237
" />
</g>
<g style="fill:#000000; fill-opacity:0.0; 
stroke:#000000; stroke-width:19.685; stroke-opacity:1; 
stroke-linecap:round; stroke-linejoin:round;">
</g>
<g style="fill:#000000; fill-opacity:0.0; 
stroke:#000000; stroke-width:59.0551; stroke-opacity:1; 
stroke-linecap:round; stroke-linejoin:round;">
<text x="70079.6" y="76321.7"
textLength="3781.21" font-size="787.402" lengthAdjust="spacingAndGlyphs"
text-anchor="start" opacity="0">Size: A4</text>
<path d="M70221 76265
L70305 76293
L70446 76293
L70502 76265
L70530 76237
L70559 76181
L70559 76124
L70530 76068
L70502 76040
L70446 76012
L70334 75984
L70277 75956
L70249 75928
L70221 75871
L70221 75815
L70249 75759
L70277 75731
L70334 75703
L70474 75703
L70559 75731
" />
<path d="M70812 76293
L70812 75899
" />
<path d="M70812 75703
L70784 75731
L70812 75759
L70840 75731
L70812 75703
L70812 75759
" />
<path d="M71037 75899
L71346 75899
L71037 76293
L71346 76293
" />
<path d="M71796 76265
L71740 76293
L71627 76293
L71571 76265
L71543 76209
L71543 75984
L71571 75928
L71627 75899
L71740 75899
L71796 75928
L71824 75984
L71824 76040
L71543 76096
" />
<path d="M72077 76237
L72105 76265
L72077 76293
L72049 76265
L72077 76237
L72077 76293
" />
<path d="M72077 75928
L72105 75956
L72077 75984
L72049 75956
L72077 75928
L72077 75984
" />
<path d="M72780 76124
L73061 76124
" />
<path d="M72724 76293
L72921 75703
L73118 76293
" />
<path d="M73568 75899
L73568 76293
" />
<path d="M73427 75674
L73286 76096
L73652 76096
" />
</g>
<g style="fill:#000000; fill-opacity:0.0; 
stroke:#000000; stroke-width:19.685; stroke-opacity:1; 
stroke-linecap:round; stroke-linejoin:round;">
</g>
<g style="fill:#000000; fill-opacity:0.0; 
stroke:#000000; stroke-width:59.0551; stroke-opacity:1; 
stroke-linecap:round; stroke-linejoin:round;">
<text x="103544" y="77424.1"
textLength="3349.27" font-size="787.402" lengthAdjust="spacingAndGlyphs"
text-anchor="start" opacity="0">Id: 1/1</text>
<path d="M103714 77395
L103714 76805
" />
<path d="M104248 77395
L104248 76805
" />
<path d="M104248 77367
L104192 77395
L104079 77395
L104023 77367
L103995 77339
L103967 77283
L103967 77114
L103995 77058
L104023 77030
L104079 77002
L104192 77002
L104248 77030
" />
<path d="M104529 77339
L104557 77367
L104529 77395
L104501 77367
L104529 77339
L104529 77395
" />
<path d="M104529 77030
L104557 77058
L104529 77086
L104501 77058
L104529 77030
L104529 77086
" />
<path d="M105570 77395
L105232 77395
" />
<path d="M105401 77395
L105401 76805
L105345 76889
L105289 76946
L105232 76974
" />
<path d="M106245 76777
L105739 77536
" />
<path d="M106751 77395
L106413 77395
" />
<path d="M106582 77395
L106582 76805
L106526 76889
L106470 76946
L106413 76974
" />
</g>
<g style="fill:#000000; fill-opacity:0.0; 
stroke:#000000; stroke-width:19.685; stroke-opacity:1; 
stroke-linecap:round; stroke-linejoin:round;">
</g>
<g style="fill:#000000; fill-opacity:0.0; 
stroke:#000000; stroke-width:59.0551; stroke-opacity:1; 
stroke-linecap:round; stroke-linejoin:round;">
<path d="M69685 73821
L112205 73821
" />
</g>
<g style="fill:#000000; fill-opacity:0.0; 
stroke:#000000; stroke-width:19.685; stroke-opacity:1; 
stroke-linecap:round; stroke-linejoin:round;">
</g>
<g style="fill:#000000; fill-opacity:0.0; 
stroke:#000000; stroke-width:157.48; stroke-opacity:1; 
stroke-linecap:round; stroke-linejoin:round;">
<text x="70079.6" y="74924.1"
textLength="11762.6" font-size="1049.87" lengthAdjust="spacingAndGlyphs"
text-anchor="start" opacity="0">Title: Frog Shutters</text>
<path d="M70360 74099
L70810 74099
" />
<path d="M70486 74886
L70585 74099
" />
<path d="M70974 74886
L71039 74361
" />
<path d="M71072 74099
L71030 74136
L71063 74174
L71105 74136
L71072 74099
L71063 74174
" />
<path d="M71302 74361
L71602 74361
" />
<path d="M71447 74099
L71363 74774
L71391 74849
L71461 74886
L71536 74886
" />
<path d="M71911 74886
L71841 74849
L71813 74774
L71897 74099
" />
<path d="M72516 74849
L72436 74886
L72286 74886
L72216 74849
L72187 74774
L72225 74474
L72272 74399
L72352 74361
L72501 74361
L72572 74399
L72600 74474
L72591 74549
L72206 74624
" />
<path d="M72895 74811
L72928 74849
L72886 74886
L72853 74849
L72895 74811
L72886 74886
" />
<path d="M72947 74399
L72980 74436
L72937 74474
L72905 74436
L72947 74399
L72937 74474
" />
<path d="M74175 74474
L73912 74474
" />
<path d="M73861 74886
L73959 74099
L74334 74099
" />
<path d="M74536 74886
L74601 74361
" />
<path d="M74582 74511
L74629 74436
L74672 74399
L74751 74361
L74826 74361
" />
<path d="M75136 74886
L75065 74849
L75032 74811
L75004 74736
L75032 74511
L75079 74436
L75121 74399
L75201 74361
L75314 74361
L75384 74399
L75417 74436
L75445 74511
L75417 74736
L75370 74811
L75328 74849
L75248 74886
L75136 74886
" />
<path d="M76139 74361
L76059 74999
L76012 75074
L75970 75111
L75890 75149
L75778 75149
L75707 75111
" />
<path d="M76078 74849
L75998 74886
L75848 74886
L75778 74849
L75745 74811
L75717 74736
L75745 74511
L75792 74436
L75834 74399
L75914 74361
L76064 74361
L76134 74399
" />
<path d="M77015 74849
L77123 74886
L77310 74886
L77390 74849
L77432 74811
L77479 74736
L77488 74661
L77460 74586
L77427 74549
L77357 74511
L77212 74474
L77142 74436
L77109 74399
L77081 74324
L77090 74249
L77137 74174
L77179 74136
L77259 74099
L77446 74099
L77554 74136
" />
<path d="M77798 74886
L77896 74099
" />
<path d="M78135 74886
L78187 74474
L78159 74399
L78088 74361
L77976 74361
L77896 74399
L77854 74436
" />
<path d="M78913 74361
L78848 74886
" />
<path d="M78576 74361
L78524 74774
L78552 74849
L78623 74886
L78735 74886
L78815 74849
L78857 74811
" />
<path d="M79176 74361
L79476 74361
" />
<path d="M79321 74099
L79237 74774
L79265 74849
L79335 74886
L79410 74886
" />
<path d="M79626 74361
L79926 74361
" />
<path d="M79771 74099
L79687 74774
L79715 74849
L79785 74886
L79860 74886
" />
<path d="M80427 74849
L80347 74886
L80197 74886
L80127 74849
L80099 74774
L80136 74474
L80183 74399
L80263 74361
L80413 74361
L80483 74399
L80511 74474
L80502 74549
L80118 74624
" />
<path d="M80797 74886
L80863 74361
" />
<path d="M80844 74511
L80891 74436
L80933 74399
L81013 74361
L81088 74361
" />
<path d="M81252 74849
L81322 74886
L81472 74886
L81552 74849
L81599 74774
L81603 74736
L81575 74661
L81505 74624
L81393 74624
L81322 74586
L81294 74511
L81299 74474
L81346 74399
L81425 74361
L81538 74361
L81608 74399
" />
</g>
<g style="fill:#000000; fill-opacity:0.0; 
stroke:#000000; stroke-width:19.685; stroke-opacity:1; 
stroke-linecap:round; stroke-linejoin:round;">
</g>
<g style="fill:#000000; fill-opacity:0.0; 
stroke:#000000; stroke-width:59.0551; stroke-opacity:1; 
stroke-linecap:round; stroke-linejoin:round;">
<text x="70079.6" y="73408.3"
textLength="12775" font-size="787.402" lengthAdjust="spacingAndGlyphs"
text-anchor="start" opacity="0">File: FrogShutters.kicad_pcb</text>
<path d="M70446 73070
L70249 73070
" />
<path d="M70249 73380
L70249 72789
L70530 72789
" />
<path d="M70755 73380
L70755 72986
" />
<path d="M70755 72789
L70727 72817
L70755 72845
L70784 72817
L70755 72789
L70755 72845
" />
<path d="M71121 73380
L71065 73352
L71037 73295
L71037 72789
" />
<path d="M71571 73352
L71515 73380
L71402 73380
L71346 73352
L71318 73295
L71318 73070
L71346 73014
L71402 72986
L71515 72986
L71571 73014
L71599 73070
L71599 73127
L71318 73183
" />
<path d="M71852 73323
L71880 73352
L71852 73380
L71824 73352
L71852 73323
L71852 73380
" />
<path d="M71852 73014
L71880 73042
L71852 73070
L71824 73042
L71852 73014
L71852 73070
" />
<path d="M72780 73070
L72583 73070
" />
<path d="M72583 73380
L72583 72789
L72865 72789
" />
<path d="M73090 73380
L73090 72986
" />
<path d="M73090 73099
L73118 73042
L73146 73014
L73202 72986
L73258 72986
" />
<path d="M73539 73380
L73483 73352
L73455 73323
L73427 73267
L73427 73099
L73455 73042
L73483 73014
L73539 72986
L73624 72986
L73680 73014
L73708 73042
L73736 73099
L73736 73267
L73708 73323
L73680 73352
L73624 73380
L73539 73380
" />
<path d="M74242 72986
L74242 73464
L74214 73520
L74186 73548
L74130 73577
L74046 73577
L73989 73548
" />
<path d="M74242 73352
L74186 73380
L74074 73380
L74018 73352
L73989 73323
L73961 73267
L73961 73099
L73989 73042
L74018 73014
L74074 72986
L74186 72986
L74242 73014
" />
<path d="M74496 73352
L74580 73380
L74721 73380
L74777 73352
L74805 73323
L74833 73267
L74833 73211
L74805 73155
L74777 73127
L74721 73099
L74608 73070
L74552 73042
L74524 73014
L74496 72958
L74496 72902
L74524 72845
L74552 72817
L74608 72789
L74749 72789
L74833 72817
" />
<path d="M75086 73380
L75086 72789
" />
<path d="M75339 73380
L75339 73070
L75311 73014
L75255 72986
L75171 72986
L75114 73014
L75086 73042
" />
<path d="M75874 72986
L75874 73380
" />
<path d="M75620 72986
L75620 73295
L75649 73352
L75705 73380
L75789 73380
L75845 73352
L75874 73323
" />
<path d="M76070 72986
L76295 72986
" />
<path d="M76155 72789
L76155 73295
L76183 73352
L76239 73380
L76295 73380
" />
<path d="M76408 72986
L76633 72986
" />
<path d="M76492 72789
L76492 73295
L76520 73352
L76577 73380
L76633 73380
" />
<path d="M77055 73352
L76998 73380
L76886 73380
L76830 73352
L76802 73295
L76802 73070
L76830 73014
L76886 72986
L76998 72986
L77055 73014
L77083 73070
L77083 73127
L76802 73183
" />
<path d="M77336 73380
L77336 72986
" />
<path d="M77336 73099
L77364 73042
L77392 73014
L77448 72986
L77505 72986
" />
<path d="M77673 73352
L77730 73380
L77842 73380
L77898 73352
L77926 73295
L77926 73267
L77898 73211
L77842 73183
L77758 73183
L77701 73155
L77673 73099
L77673 73070
L77701 73014
L77758 72986
L77842 72986
L77898 73014
" />
<path d="M78180 73323
L78208 73352
L78180 73380
L78151 73352
L78180 73323
L78180 73380
" />
<path d="M78461 73380
L78461 72789
" />
<path d="M78517 73155
L78686 73380
" />
<path d="M78686 72986
L78461 73211
" />
<path d="M78939 73380
L78939 72986
" />
<path d="M78939 72789
L78911 72817
L78939 72845
L78967 72817
L78939 72789
L78939 72845
" />
<path d="M79473 73352
L79417 73380
L79304 73380
L79248 73352
L79220 73323
L79192 73267
L79192 73099
L79220 73042
L79248 73014
L79304 72986
L79417 72986
L79473 73014
" />
<path d="M79979 73380
L79979 73070
L79951 73014
L79895 72986
L79782 72986
L79726 73014
" />
<path d="M79979 73352
L79923 73380
L79782 73380
L79726 73352
L79698 73295
L79698 73239
L79726 73183
L79782 73155
L79923 73155
L79979 73127
" />
<path d="M80514 73380
L80514 72789
" />
<path d="M80514 73352
L80457 73380
L80345 73380
L80289 73352
L80260 73323
L80232 73267
L80232 73099
L80260 73042
L80289 73014
L80345 72986
L80457 72986
L80514 73014
" />
<path d="M80654 73436
L81104 73436
" />
<path d="M81245 72986
L81245 73577
" />
<path d="M81245 73014
L81301 72986
L81413 72986
L81470 73014
L81498 73042
L81526 73099
L81526 73267
L81498 73323
L81470 73352
L81413 73380
L81301 73380
L81245 73352
" />
<path d="M82032 73352
L81976 73380
L81863 73380
L81807 73352
L81779 73323
L81751 73267
L81751 73099
L81779 73042
L81807 73014
L81863 72986
L81976 72986
L82032 73014
" />
<path d="M82285 73380
L82285 72789
" />
<path d="M82285 73014
L82341 72986
L82454 72986
L82510 73014
L82538 73042
L82566 73099
L82566 73267
L82538 73323
L82510 73352
L82454 73380
L82341 73380
L82285 73352
" />
</g>
<g style="fill:#000000; fill-opacity:0.0; 
stroke:#000000; stroke-width:19.685; stroke-opacity:1; 
stroke-linecap:round; stroke-linejoin:round;">
</g>
<g style="fill:#000000; fill-opacity:0.0; 
stroke:#000000; stroke-width:59.0551; stroke-opacity:1; 
stroke-linecap:round; stroke-linejoin:round;">
<path d="M69685 71459
L112205 71459
" />
</g>
<g style="fill:#000000; fill-opacity:0.0; 
stroke:#000000; stroke-width:19.685; stroke-opacity:1; 
stroke-linecap:round; stroke-linejoin:round;">
</g>
<g style="fill:#000000; fill-opacity:0.0; 
stroke:#000000; stroke-width:59.0551; stroke-opacity:1; 
stroke-linecap:round; stroke-linejoin:round;">
<text x="70079.6" y="72345.4"
textLength="3236.78" font-size="787.402" lengthAdjust="spacingAndGlyphs"
text-anchor="start" opacity="0">Sheet: </text>
<path d="M70221 72289
L70305 72317
L70446 72317
L70502 72289
L70530 72260
L70559 72204
L70559 72148
L70530 72092
L70502 72064
L70446 72036
L70334 72007
L70277 71979
L70249 71951
L70221 71895
L70221 71839
L70249 71782
L70277 71754
L70334 71726
L70474 71726
L70559 71754
" />
<path d="M70812 72317
L70812 71726
" />
<path d="M71065 72317
L71065 72007
L71037 71951
L70980 71923
L70896 71923
L70840 71951
L70812 71979
" />
<path d="M71571 72289
L71515 72317
L71402 72317
L71346 72289
L71318 72232
L71318 72007
L71346 71951
L71402 71923
L71515 71923
L71571 71951
L71599 72007
L71599 72064
L71318 72120
" />
<path d="M72077 72289
L72021 72317
L71908 72317
L71852 72289
L71824 72232
L71824 72007
L71852 71951
L71908 71923
L72021 71923
L72077 71951
L72105 72007
L72105 72064
L71824 72120
" />
<path d="M72274 71923
L72499 71923
" />
<path d="M72358 71726
L72358 72232
L72386 72289
L72443 72317
L72499 72317
" />
<path d="M72696 72260
L72724 72289
L72696 72317
L72668 72289
L72696 72260
L72696 72317
" />
<path d="M72696 71951
L72724 71979
L72696 72007
L72668 71979
L72696 71951
L72696 72007
" />
</g>
<g style="fill:#000000; fill-opacity:0.0; 
stroke:#000000; stroke-width:19.685; stroke-opacity:1; 
stroke-linecap:round; stroke-linejoin:round;">
</g>
<g style="fill:#000000; fill-opacity:0.0; 
stroke:#000000; stroke-width:118.11; stroke-opacity:1; 
stroke-linecap:round; stroke-linejoin:round;">
<text x="70079.6" y="71164.3"
textLength="7061.3" font-size="787.402" lengthAdjust="spacingAndGlyphs"
text-anchor="start" opacity="0">Gratefulfrog.org</text>
<path d="M70606 70573
L70550 70545
L70465 70545
L70381 70573
L70325 70629
L70296 70686
L70268 70798
L70268 70883
L70296 70995
L70325 71051
L70381 71108
L70465 71136
L70521 71136
L70606 71108
L70634 71079
L70634 70883
L70521 70883
" />
<path d="M70887 71136
L70887 70742
" />
<path d="M70887 70854
L70915 70798
L70943 70770
L71000 70742
L71056 70742
" />
<path d="M71506 71136
L71506 70826
L71478 70770
L71421 70742
L71309 70742
L71253 70770
" />
<path d="M71506 71108
L71449 71136
L71309 71136
L71253 71108
L71224 71051
L71224 70995
L71253 70939
L71309 70911
L71449 70911
L71506 70883
" />
<path d="M71703 70742
L71928 70742
" />
<path d="M71787 70545
L71787 71051
L71815 71108
L71871 71136
L71928 71136
" />
<path d="M72349 71108
L72293 71136
L72181 71136
L72124 71108
L72096 71051
L72096 70826
L72124 70770
L72181 70742
L72293 70742
L72349 70770
L72377 70826
L72377 70883
L72096 70939
" />
<path d="M72546 70742
L72771 70742
" />
<path d="M72631 71136
L72631 70629
L72659 70573
L72715 70545
L72771 70545
" />
<path d="M73221 70742
L73221 71136
" />
<path d="M72968 70742
L72968 71051
L72996 71108
L73052 71136
L73137 71136
L73193 71108
L73221 71079
" />
<path d="M73587 71136
L73530 71108
L73502 71051
L73502 70545
" />
<path d="M73727 70742
L73952 70742
" />
<path d="M73812 71136
L73812 70629
L73840 70573
L73896 70545
L73952 70545
" />
<path d="M74149 71136
L74149 70742
" />
<path d="M74149 70854
L74177 70798
L74205 70770
L74262 70742
L74318 70742
" />
<path d="M74599 71136
L74543 71108
L74515 71079
L74487 71023
L74487 70854
L74515 70798
L74543 70770
L74599 70742
L74683 70742
L74740 70770
L74768 70798
L74796 70854
L74796 71023
L74768 71079
L74740 71108
L74683 71136
L74599 71136
" />
<path d="M75302 70742
L75302 71220
L75274 71276
L75246 71304
L75190 71332
L75105 71332
L75049 71304
" />
<path d="M75302 71108
L75246 71136
L75133 71136
L75077 71108
L75049 71079
L75021 71023
L75021 70854
L75049 70798
L75077 70770
L75133 70742
L75246 70742
L75302 70770
" />
<path d="M75583 71079
L75611 71108
L75583 71136
L75555 71108
L75583 71079
L75583 71136
" />
<path d="M75949 71136
L75893 71108
L75865 71079
L75836 71023
L75836 70854
L75865 70798
L75893 70770
L75949 70742
L76033 70742
L76090 70770
L76118 70798
L76146 70854
L76146 71023
L76118 71079
L76090 71108
L76033 71136
L75949 71136
" />
<path d="M76399 71136
L76399 70742
" />
<path d="M76399 70854
L76427 70798
L76455 70770
L76511 70742
L76568 70742
" />
<path d="M77018 70742
L77018 71220
L76989 71276
L76961 71304
L76905 71332
L76821 71332
L76764 71304
" />
<path d="M77018 71108
L76961 71136
L76849 71136
L76793 71108
L76764 71079
L76736 71023
L76736 70854
L76764 70798
L76793 70770
L76849 70742
L76961 70742
L77018 70770
" />
</g>
<g style="fill:#000000; fill-opacity:0.0; 
stroke:#000000; stroke-width:19.685; stroke-opacity:1; 
stroke-linecap:round; stroke-linejoin:round;">
</g>
<g style="fill:#000000; fill-opacity:0.0; 
stroke:#000000; stroke-width:59.0551; stroke-opacity:1; 
stroke-linecap:round; stroke-linejoin:round;">
<text x="70079.6" y="69983.1"
textLength="27403.3" font-size="787.402" lengthAdjust="spacingAndGlyphs"
text-anchor="start" opacity="0">Version with 2 PCBs, adapted to enclosure model, Finalized</text>
<path d="M70165 69364
L70362 69955
L70559 69364
" />
<path d="M70980 69926
L70924 69955
L70812 69955
L70755 69926
L70727 69870
L70727 69645
L70755 69589
L70812 69561
L70924 69561
L70980 69589
L71009 69645
L71009 69701
L70727 69758
" />
<path d="M71262 69955
L71262 69561
" />
<path d="M71262 69673
L71290 69617
L71318 69589
L71374 69561
L71430 69561
" />
<path d="M71599 69926
L71655 69955
L71768 69955
L71824 69926
L71852 69870
L71852 69842
L71824 69786
L71768 69758
L71683 69758
L71627 69730
L71599 69673
L71599 69645
L71627 69589
L71683 69561
L71768 69561
L71824 69589
" />
<path d="M72105 69955
L72105 69561
" />
<path d="M72105 69364
L72077 69392
L72105 69420
L72133 69392
L72105 69364
L72105 69420
" />
<path d="M72471 69955
L72415 69926
L72386 69898
L72358 69842
L72358 69673
L72386 69617
L72415 69589
L72471 69561
L72555 69561
L72611 69589
L72640 69617
L72668 69673
L72668 69842
L72640 69898
L72611 69926
L72555 69955
L72471 69955
" />
<path d="M72921 69561
L72921 69955
" />
<path d="M72921 69617
L72949 69589
L73005 69561
L73090 69561
L73146 69589
L73174 69645
L73174 69955
" />
<path d="M73849 69561
L73961 69955
L74074 69673
L74186 69955
L74299 69561
" />
<path d="M74524 69955
L74524 69561
" />
<path d="M74524 69364
L74496 69392
L74524 69420
L74552 69392
L74524 69364
L74524 69420
" />
<path d="M74721 69561
L74946 69561
" />
<path d="M74805 69364
L74805 69870
L74833 69926
L74889 69955
L74946 69955
" />
<path d="M75142 69955
L75142 69364
" />
<path d="M75395 69955
L75395 69645
L75367 69589
L75311 69561
L75227 69561
L75171 69589
L75142 69617
" />
<path d="M76099 69420
L76127 69392
L76183 69364
L76323 69364
L76380 69392
L76408 69420
L76436 69476
L76436 69533
L76408 69617
L76070 69955
L76436 69955
" />
<path d="M77139 69955
L77139 69364
L77364 69364
L77420 69392
L77448 69420
L77476 69476
L77476 69561
L77448 69617
L77420 69645
L77364 69673
L77139 69673
" />
<path d="M78067 69898
L78039 69926
L77955 69955
L77898 69955
L77814 69926
L77758 69870
L77730 69814
L77701 69701
L77701 69617
L77730 69505
L77758 69448
L77814 69392
L77898 69364
L77955 69364
L78039 69392
L78067 69420
" />
<path d="M78517 69645
L78601 69673
L78629 69701
L78658 69758
L78658 69842
L78629 69898
L78601 69926
L78545 69955
L78320 69955
L78320 69364
L78517 69364
L78573 69392
L78601 69420
L78629 69476
L78629 69533
L78601 69589
L78573 69617
L78517 69645
L78320 69645
" />
<path d="M78883 69926
L78939 69955
L79051 69955
L79108 69926
L79136 69870
L79136 69842
L79108 69786
L79051 69758
L78967 69758
L78911 69730
L78883 69673
L78883 69645
L78911 69589
L78967 69561
L79051 69561
L79108 69589
" />
<path d="M79417 69926
L79417 69955
L79389 70011
L79361 70039
" />
<path d="M80373 69955
L80373 69645
L80345 69589
L80289 69561
L80176 69561
L80120 69589
" />
<path d="M80373 69926
L80317 69955
L80176 69955
L80120 69926
L80092 69870
L80092 69814
L80120 69758
L80176 69730
L80317 69730
L80373 69701
" />
<path d="M80907 69955
L80907 69364
" />
<path d="M80907 69926
L80851 69955
L80739 69955
L80682 69926
L80654 69898
L80626 69842
L80626 69673
L80654 69617
L80682 69589
L80739 69561
L80851 69561
L80907 69589
" />
<path d="M81442 69955
L81442 69645
L81413 69589
L81357 69561
L81245 69561
L81188 69589
" />
<path d="M81442 69926
L81385 69955
L81245 69955
L81188 69926
L81160 69870
L81160 69814
L81188 69758
L81245 69730
L81385 69730
L81442 69701
" />
<path d="M81723 69561
L81723 70151
" />
<path d="M81723 69589
L81779 69561
L81892 69561
L81948 69589
L81976 69617
L82004 69673
L82004 69842
L81976 69898
L81948 69926
L81892 69955
L81779 69955
L81723 69926
" />
<path d="M82173 69561
L82398 69561
" />
<path d="M82257 69364
L82257 69870
L82285 69926
L82341 69955
L82398 69955
" />
<path d="M82820 69926
L82763 69955
L82651 69955
L82595 69926
L82566 69870
L82566 69645
L82595 69589
L82651 69561
L82763 69561
L82820 69589
L82848 69645
L82848 69701
L82566 69758
" />
<path d="M83354 69955
L83354 69364
" />
<path d="M83354 69926
L83298 69955
L83185 69955
L83129 69926
L83101 69898
L83073 69842
L83073 69673
L83101 69617
L83129 69589
L83185 69561
L83298 69561
L83354 69589
" />
<path d="M84001 69561
L84226 69561
" />
<path d="M84085 69364
L84085 69870
L84113 69926
L84169 69955
L84226 69955
" />
<path d="M84507 69955
L84451 69926
L84422 69898
L84394 69842
L84394 69673
L84422 69617
L84451 69589
L84507 69561
L84591 69561
L84647 69589
L84676 69617
L84704 69673
L84704 69842
L84676 69898
L84647 69926
L84591 69955
L84507 69955
" />
<path d="M85632 69926
L85575 69955
L85463 69955
L85407 69926
L85379 69870
L85379 69645
L85407 69589
L85463 69561
L85575 69561
L85632 69589
L85660 69645
L85660 69701
L85379 69758
" />
<path d="M85913 69561
L85913 69955
" />
<path d="M85913 69617
L85941 69589
L85997 69561
L86082 69561
L86138 69589
L86166 69645
L86166 69955
" />
<path d="M86700 69926
L86644 69955
L86532 69955
L86475 69926
L86447 69898
L86419 69842
L86419 69673
L86447 69617
L86475 69589
L86532 69561
L86644 69561
L86700 69589
" />
<path d="M87038 69955
L86982 69926
L86953 69870
L86953 69364
" />
<path d="M87347 69955
L87291 69926
L87263 69898
L87235 69842
L87235 69673
L87263 69617
L87291 69589
L87347 69561
L87431 69561
L87488 69589
L87516 69617
L87544 69673
L87544 69842
L87516 69898
L87488 69926
L87431 69955
L87347 69955
" />
<path d="M87769 69926
L87825 69955
L87938 69955
L87994 69926
L88022 69870
L88022 69842
L87994 69786
L87938 69758
L87853 69758
L87797 69730
L87769 69673
L87769 69645
L87797 69589
L87853 69561
L87938 69561
L87994 69589
" />
<path d="M88528 69561
L88528 69955
" />
<path d="M88275 69561
L88275 69870
L88303 69926
L88359 69955
L88444 69955
L88500 69926
L88528 69898
" />
<path d="M88809 69955
L88809 69561
" />
<path d="M88809 69673
L88838 69617
L88866 69589
L88922 69561
L88978 69561
" />
<path d="M89400 69926
L89344 69955
L89231 69955
L89175 69926
L89147 69870
L89147 69645
L89175 69589
L89231 69561
L89344 69561
L89400 69589
L89428 69645
L89428 69701
L89147 69758
" />
<path d="M90131 69955
L90131 69561
" />
<path d="M90131 69617
L90159 69589
L90215 69561
L90300 69561
L90356 69589
L90384 69645
L90384 69955
" />
<path d="M90384 69645
L90412 69589
L90469 69561
L90553 69561
L90609 69589
L90637 69645
L90637 69955
" />
<path d="M91003 69955
L90947 69926
L90919 69898
L90890 69842
L90890 69673
L90919 69617
L90947 69589
L91003 69561
L91087 69561
L91144 69589
L91172 69617
L91200 69673
L91200 69842
L91172 69898
L91144 69926
L91087 69955
L91003 69955
" />
<path d="M91706 69955
L91706 69364
" />
<path d="M91706 69926
L91650 69955
L91537 69955
L91481 69926
L91453 69898
L91425 69842
L91425 69673
L91453 69617
L91481 69589
L91537 69561
L91650 69561
L91706 69589
" />
<path d="M92212 69926
L92156 69955
L92043 69955
L91987 69926
L91959 69870
L91959 69645
L91987 69589
L92043 69561
L92156 69561
L92212 69589
L92240 69645
L92240 69701
L91959 69758
" />
<path d="M92578 69955
L92521 69926
L92493 69870
L92493 69364
" />
<path d="M92831 69926
L92831 69955
L92803 70011
L92775 70039
" />
<path d="M93731 69645
L93534 69645
" />
<path d="M93534 69955
L93534 69364
L93815 69364
" />
<path d="M94040 69955
L94040 69561
" />
<path d="M94040 69364
L94012 69392
L94040 69420
L94068 69392
L94040 69364
L94040 69420
" />
<path d="M94321 69561
L94321 69955
" />
<path d="M94321 69617
L94349 69589
L94406 69561
L94490 69561
L94546 69589
L94574 69645
L94574 69955
" />
<path d="M95109 69955
L95109 69645
L95081 69589
L95024 69561
L94912 69561
L94856 69589
" />
<path d="M95109 69926
L95052 69955
L94912 69955
L94856 69926
L94827 69870
L94827 69814
L94856 69758
L94912 69730
L95052 69730
L95109 69701
" />
<path d="M95474 69955
L95418 69926
L95390 69870
L95390 69364
" />
<path d="M95699 69955
L95699 69561
" />
<path d="M95699 69364
L95671 69392
L95699 69420
L95727 69392
L95699 69364
L95699 69420
" />
<path d="M95924 69561
L96233 69561
L95924 69955
L96233 69955
" />
<path d="M96683 69926
L96627 69955
L96515 69955
L96458 69926
L96430 69870
L96430 69645
L96458 69589
L96515 69561
L96627 69561
L96683 69589
L96712 69645
L96712 69701
L96430 69758
" />
<path d="M97218 69955
L97218 69364
" />
<path d="M97218 69926
L97162 69955
L97049 69955
L96993 69926
L96965 69898
L96937 69842
L96937 69673
L96965 69617
L96993 69589
L97049 69561
L97162 69561
L97218 69589
" />
</g>
<g style="fill:#000000; fill-opacity:0.0; 
stroke:#000000; stroke-width:19.685; stroke-opacity:1; 
stroke-linecap:round; stroke-linejoin:round;">
</g>
<g style="fill:#000000; fill-opacity:0.0; 
stroke:#000000; stroke-width:59.0551; stroke-opacity:1; 
stroke-linecap:round; stroke-linejoin:round;">
<path d="M77559 75396
L77559 76577
" />
</g>
<g style="fill:#000000; fill-opacity:0.0; 
stroke:#000000; stroke-width:19.685; stroke-opacity:1; 
stroke-linecap:round; stroke-linejoin:round;">
</g>
<g style="fill:#000000; fill-opacity:0.0; 
stroke:#000000; stroke-width:59.0551; stroke-opacity:1; 
stroke-linecap:round; stroke-linejoin:round;">
<path d="M102756 75396
L102756 77955
" />
</g>
<g style="fill:#848484; fill-opacity:0.0; 
stroke:#848484; stroke-width:59.0551; stroke-opacity:1; 
stroke-linecap:round; stroke-linejoin:round;">
</g>
<g style="fill:#848484; fill-opacity:1.0; 
stroke:#848484; stroke-width:0; stroke-opacity:1; 
stroke-linecap:round; stroke-linejoin:round;">
<circle cx="68605.9" cy="23835.1" r="29.5276" /> 
</g>
<g style="fill:#848484; fill-opacity:1.0; 
stroke:#848484; stroke-width:59.0551; stroke-opacity:1; 
stroke-linecap:round; stroke-linejoin:round;">
</g>
<g style="fill:#848484; fill-opacity:0.0; 
stroke:#848484; stroke-width:59.0551; stroke-opacity:1; 
stroke-linecap:round; stroke-linejoin:round;">
<path d="M68605 23835
L93349 23835
" />
<path d="M93349 23835
L93349 33697
" />
<path d="M93349 33697
L68605 33697
" />
<path d="M68605 33697
L68605 23835
" />
</g>
<g style="fill:#848484; fill-opacity:0.0; 
stroke:#848484; stroke-width:3.93701; stroke-opacity:1; 
stroke-linecap:round; stroke-linejoin:round;">
<circle cx="28734.4" cy="48327.2" r="1279.53" /> 
<circle cx="28734.4" cy="18642.1" r="1279.53" /> 
<circle cx="41096.6" cy="48327.2" r="1279.53" /> 
<circle cx="41096.6" cy="18642.1" r="1279.53" /> 
</g>
<g style="fill:#848484; fill-opacity:0.0; 
stroke:#848484; stroke-width:19.685; stroke-opacity:1; 
stroke-linecap:round; stroke-linejoin:round;">
<path d="M47120 30807
L47120 36201
" />
<path d="M48517 30807
L47120 30807
" />
<path d="M48517 36201
L48517 30807
" />
<path d="M47120 36201
L48517 36201
" />
<path d="M47120 20177
L47120 25571
" />
<path d="M48517 20177
L47120 20177
" />
<path d="M48517 25571
L48517 20177
" />
<path d="M47120 25571
L48517 25571
" />
</g>
<g style="fill:#848484; fill-opacity:0.0; 
stroke:#848484; stroke-width:3.93701; stroke-opacity:1; 
stroke-linecap:round; stroke-linejoin:round;">
<circle cx="58419.4" cy="48327.2" r="1279.53" /> 
<circle cx="91968.5" cy="48326.8" r="1279.53" /> 
<circle cx="62283.5" cy="18641.7" r="1279.53" /> 
<circle cx="91968.5" cy="18641.7" r="1279.53" /> 
<circle cx="62283.5" cy="48326.8" r="1279.53" /> 
<circle cx="58419.4" cy="18642.1" r="1279.53" /> 
<g >
</g>
<g >
</g>
<g >
</g>
<g >
</g>
<g >
</g>
<g >
</g>
<g >
</g>
<g >
</g>
<g >
</g>
<g >
</g>
<g >
</g>
<g >
</g>
<g >
</g>
<g >
</g>
<g >
</g>
<g >
</g>
<g >
</g>
<g >
</g>
<g >
</g>
<g >
</g>
<g >
</g>
<g >
</g>
<g >
</g>
<g >
</g>
<g >
</g>
<g >
</g>
<g >
</g>
<g >
</g>
<g >
</g>
<g >
</g>
<g >
</g>
<g >
</g>
<g >
</g>
<g >
</g>
<g >
</g>
<g >
</g>
<g >
</g>
<g >
</g>
<g >
</g>
<g >
</g>
<g >
</g>
<g >
</g>
<g >
</g>
<g >
</g>
<g >
</g>
<g >
</g>
<g >
</g>
</g>
<g style="fill:#000000; fill-opacity:0.0; 
stroke:#000000; stroke-width:3.93701; stroke-opacity:1; 
stroke-linecap:round; stroke-linejoin:round;">
</g>
<g style="fill:#C2C200; fill-opacity:0.0; 
stroke:#C2C200; stroke-width:3.93701; stroke-opacity:1; 
stroke-linecap:round; stroke-linejoin:round;">
</g>
<g style="fill:#C2C200; fill-opacity:0.0; 
stroke:#C2C200; stroke-width:59.0551; stroke-opacity:1; 
stroke-linecap:round; stroke-linejoin:round;">
<path d="M59718 17342
L59718 49626
" />
<path d="M27435 17342
L59718 17342
" />
<path d="M27435 49626
L27435 17342
" />
<path d="M59718 49626
L27435 49626
" />
<path d="M60978 17342
L93261 17342
" />
<path d="M93261 17342
L93261 49626
" />
<path d="M93261 49626
L60978 49626
" />
<path d="M60978 49626
L60978 17342
" />
<g >
</g>
<g >
</g>
<g >
</g>
<g >
</g>
<g >
</g>
<g >
</g>
<g >
</g>
<g >
</g>
<g >
</g>
<g >
</g>
<g >
</g>
<g >
</g>
<g >
</g>
<g >
</g>
<g >
</g>
<g >
</g>
<g >
</g>
<g >
</g>
<g >
</g>
<g >
</g>
<g >
</g>
<g >
</g>
<g >
</g>
<g >
</g>
<g >
</g>
<g >
</g>
<g >
</g>
<g >
</g>
<g >
</g>
<g >
</g>
<g >
</g>
<g >
</g>
<g >
</g>
<g >
</g>
<g >
</g>
<g >
</g>
<g >
</g>
<g >
</g>
<g >
</g>
<g >
</g>
<g >
</g>
<g >
</g>
<g >
</g>
<g >
</g>
<g >
</g>
<g >
</g>
<g >
</g>
</g> 
</svg>
