%TF.GenerationSoftware,KiCad,Pcbnew,5.1.9-73d0e3b20d~88~ubuntu18.04.1*%
%TF.CreationDate,2021-03-04T08:58:03+01:00*%
%TF.ProjectId,FrogShutters,46726f67-5368-4757-9474-6572732e6b69,2.2.6*%
%TF.SameCoordinates,Original*%
%TF.FileFunction,Other,User*%
%FSLAX46Y46*%
G04 Gerber Fmt 4.6, Leading zero omitted, Abs format (unit mm)*
G04 Created by KiCad (PCBNEW 5.1.9-73d0e3b20d~88~ubuntu18.04.1) date 2021-03-04 08:58:03*
%MOMM*%
%LPD*%
G01*
G04 APERTURE LIST*
%ADD10C,0.150000*%
%ADD11C,0.010000*%
G04 APERTURE END LIST*
D10*
%TO.C,MD1*%
X126309001Y-78641200D02*
X126309001Y-53591200D01*
X189158999Y-78641200D02*
X126309001Y-78641200D01*
X189158999Y-53591200D02*
X189158999Y-78641200D01*
X126309001Y-53591200D02*
X189158999Y-53591200D01*
X126309001Y-53591200D02*
X126309001Y-53591200D01*
D11*
%TO.C,H3*%
X188900000Y-115800000D02*
G75*
G03*
X188900000Y-115800000I-3250000J0D01*
G01*
%TO.C,H7*%
X113500000Y-40400000D02*
G75*
G03*
X113500000Y-40400000I-3250000J0D01*
G01*
%TO.C,H8*%
X188900000Y-40400000D02*
G75*
G03*
X188900000Y-40400000I-3250000J0D01*
G01*
%TO.C,H9*%
X113500000Y-115800000D02*
G75*
G03*
X113500000Y-115800000I-3250000J0D01*
G01*
%TD*%
M02*
